build (read-only)/CLA2Lvl_tb.vcd
$date
	Sun Mar 19 16:39:40 2017
$end
$version
	Icarus Verilog
$end
$timescale
	1ns
$end
$scope module CLA2Lvl_tb $end
$var wire 1 ! err $end
$var wire 16 " ref_s [15:0] $end
$var wire 1 # ref_co $end
$var wire 1 $ co $end
$var wire 16 % S [15:0] $end
$var reg 16 & A [15:0] $end
$var reg 16 ' B [15:0] $end
$var reg 1 ( ci $end
$var integer 32 ) i [31:0] $end
$var integer 32 * j [31:0] $end
$var integer 32 + k [31:0] $end
$scope module uut $end
$var wire 16 , A [15:0] $end
$var wire 16 - B [15:0] $end
$var wire 1 ( ci $end
$var wire 1 $ co $end
$var wire 16 . S [15:0] $end
$var wire 4 / PG [3:0] $end
$var wire 4 0 GG [3:0] $end
$var wire 5 1 C [4:0] $end
$scope begin addbit[0] $end
$scope module bit $end
$var wire 4 2 A [3:0] $end
$var wire 4 3 B [3:0] $end
$var wire 1 4 Ci $end
$var wire 1 5 GG $end
$var wire 1 6 PG $end
$var wire 4 7 S [3:0] $end
$var wire 4 8 P [3:0] $end
$var wire 4 9 G [3:0] $end
$var wire 1 : Co $end
$var wire 5 ; C [4:0] $end
$scope begin genblk0001 $end
$upscope $end
$scope begin genblk0002 $end
$upscope $end
$scope begin genblk001 $end
$upscope $end
$scope begin genblk002 $end
$upscope $end
$scope begin genblk01 $end
$upscope $end
$scope begin genblk02 $end
$upscope $end
$scope begin genblk1 $end
$upscope $end
$scope begin genblk2 $end
$upscope $end
$upscope $end
$upscope $end
$scope begin addbit[1] $end
$scope module bit $end
$var wire 4 < A [3:0] $end
$var wire 4 = B [3:0] $end
$var wire 1 > Ci $end
$var wire 1 ? GG $end
$var wire 1 @ PG $end
$var wire 4 A S [3:0] $end
$var wire 4 B P [3:0] $end
$var wire 4 C G [3:0] $end
$var wire 1 D Co $end
$var wire 5 E C [4:0] $end
$scope begin genblk0001 $end
$upscope $end
$scope begin genblk0002 $end
$upscope $end
$scope begin genblk001 $end
$upscope $end
$scope begin genblk002 $end
$upscope $end
$scope begin genblk01 $end
$upscope $end
$scope begin genblk02 $end
$upscope $end
$scope begin genblk1 $end
$upscope $end
$scope begin genblk2 $end
$upscope $end
$upscope $end
$upscope $end
$scope begin addbit[2] $end
$scope module bit $end
$var wire 4 F A [3:0] $end
$var wire 4 G B [3:0] $end
$var wire 1 H Ci $end
$var wire 1 I GG $end
$var wire 1 J PG $end
$var wire 4 K S [3:0] $end
$var wire 4 L P [3:0] $end
$var wire 4 M G [3:0] $end
$var wire 1 N Co $end
$var wire 5 O C [4:0] $end
$scope begin genblk0001 $end
$upscope $end
$scope begin genblk0002 $end
$upscope $end
$scope begin genblk001 $end
$upscope $end
$scope begin genblk002 $end
$upscope $end
$scope begin genblk01 $end
$upscope $end
$scope begin genblk02 $end
$upscope $end
$scope begin genblk1 $end
$upscope $end
$scope begin genblk2 $end
$upscope $end
$upscope $end
$upscope $end
$scope begin addbit[3] $end
$scope module bit $end
$var wire 4 P A [3:0] $end
$var wire 4 Q B [3:0] $end
$var wire 1 R Ci $end
$var wire 1 S GG $end
$var wire 1 T PG $end
$var wire 4 U S [3:0] $end
$var wire 4 V P [3:0] $end
$var wire 4 W G [3:0] $end
$var wire 1 X Co $end
$var wire 5 Y C [4:0] $end
$scope begin genblk0001 $end
$upscope $end
$scope begin genblk0002 $end
$upscope $end
$scope begin genblk001 $end
$upscope $end
$scope begin genblk002 $end
$upscope $end
$scope begin genblk01 $end
$upscope $end
$scope begin genblk02 $end
$upscope $end
$scope begin genblk1 $end
$upscope $end
$scope begin genblk2 $end
$upscope $end
$upscope $end
$upscope $end
$upscope $end
$upscope $end
$enddefinitions $end
#0
$dumpvars
b0 Y
0X
b0 W
b0 V
b0 U
0T
0S
0R
b0 Q
b0 P
b0 O
0N
b0 M
b0 L
b0 K
0J
0I
0H
b0 G
b0 F
b0 E
0D
b0 C
b0 B
b0 A
0@
0?
0>
b0 =
b0 <
b0 ;
0:
b0 9
b0 8
b0 7
06
05
04
b0 3
b0 2
b0 1
b0 0
b0 /
b0 .
b0 -
b0 ,
bx +
bx *
b0 )
0(
b0 '
b0 &
b0 %
0$
0#
b0 "
0!
$end
#5
b0 +
b0 *
#10
b1 +
#15
b1 %
b1 .
b1 7
b1 8
0!
b1 "
b1 3
b10 +
b1 '
b1 -
#20
b10 %
b10 .
b10 7
b10 8
0!
b10 "
b10 3
b11 +
b10 '
b10 -
#25
b11 %
b11 .
b11 7
b11 8
0!
b11 "
b11 3
b100 +
b11 '
b11 -
#30
b100 %
b100 .
b100 7
b100 8
0!
b100 "
b100 3
b101 +
b100 '
b100 -
#35
b101 %
b101 .
b101 7
b101 8
0!
b101 "
b101 3
b110 +
b101 '
b101 -
#40
b110 %
b110 .
b110 7
b110 8
0!
b110 "
b110 3
b111 +
b110 '
b110 -
#45
b111 %
b111 .
b111 7
b111 8
0!
b111 "
b111 3
b1000 +
b111 '
b111 -
#50
b0 /
06
b1000 %
b1000 .
b1000 7
b1000 8
0!
b1000 "
b1000 3
b1001 +
b1000 '
b1000 -
#55
b1001 %
b1001 .
b1001 7
b1001 8
0!
b1001 "
b1001 3
b1010 +
b1001 '
b1001 -
#60
b1010 %
b1010 .
b1010 7
b1010 8
0!
b1010 "
b1010 3
b1011 +
b1010 '
b1010 -
#65
b1011 %
b1011 .
b1011 7
b1011 8
0!
b1011 "
b1011 3
b1100 +
b1011 '
b1011 -
#70
b0 /
06
b1100 %
b1100 .
b1100 7
b1100 8
0!
b1100 "
b1100 3
b1101 +
b1100 '
b1100 -
#75
b1101 %
b1101 .
b1101 7
b1101 8
0!
b1101 "
b1101 3
b1110 +
b1101 '
b1101 -
#80
b1110 %
b1110 .
b1110 7
b1110 8
0!
b1110 "
b1110 3
b1111 +
b1110 '
b1110 -
#85
b1 /
16
b1111 %
b1111 .
b1111 7
b1111 8
0!
b1111 "
b1111 3
b10000 +
b1111 '
b1111 -
#90
b0 /
06
b0 7
b10000 %
b10000 .
b1 A
b0 8
b1 B
0!
b10000 "
b0 3
b1 =
b10001 +
b10000 '
b10000 -
#95
b10001 %
b10001 .
b1 7
b1 8
0!
b10001 "
b1 3
b10010 +
b10001 '
b10001 -
#100
b10010 %
b10010 .
b10 7
b10 8
0!
b10010 "
b10 3
b10011 +
b10010 '
b10010 -
#105
b10011 %
b10011 .
b11 7
b11 8
0!
b10011 "
b11 3
b10100 +
b10011 '
b10011 -
#110
b10100 %
b10100 .
b100 7
b100 8
0!
b10100 "
b100 3
b10101 +
b10100 '
b10100 -
#115
b10101 %
b10101 .
b101 7
b101 8
0!
b10101 "
b101 3
b10110 +
b10101 '
b10101 -
#120
b10110 %
b10110 .
b110 7
b110 8
0!
b10110 "
b110 3
b10111 +
b10110 '
b10110 -
#125
b10111 %
b10111 .
b111 7
b111 8
0!
b10111 "
b111 3
b11000 +
b10111 '
b10111 -
#130
b0 /
06
b11000 %
b11000 .
b1000 7
b1000 8
0!
b11000 "
b1000 3
b11001 +
b11000 '
b11000 -
#135
b11001 %
b11001 .
b1001 7
b1001 8
0!
b11001 "
b1001 3
b11010 +
b11001 '
b11001 -
#140
b11010 %
b11010 .
b1010 7
b1010 8
0!
b11010 "
b1010 3
b11011 +
b11010 '
b11010 -
#145
b11011 %
b11011 .
b1011 7
b1011 8
0!
b11011 "
b1011 3
b11100 +
b11011 '
b11011 -
#150
b0 /
06
b11100 %
b11100 .
b1100 7
b1100 8
0!
b11100 "
b1100 3
b11101 +
b11100 '
b11100 -
#155
b11101 %
b11101 .
b1101 7
b1101 8
0!
b11101 "
b1101 3
b11110 +
b11101 '
b11101 -
#160
b11110 %
b11110 .
b1110 7
b1110 8
0!
b11110 "
b1110 3
b11111 +
b11110 '
b11110 -
#165
b1 /
16
b11111 %
b11111 .
b1111 7
b1111 8
0!
b11111 "
b1111 3
b1 *
b0 +
b11111 '
b11111 -
#170
b0 /
06
b1 7
b1 %
b1 .
b0 A
b1 8
b0 B
0!
b0 3
b0 =
b1 "
b1 2
b1 +
b0 '
b0 -
b1 &
b1 ,
#175
b10 ;
b10 %
b10 .
b10 7
b1 9
0!
b10 "
b1 3
b10 +
b1 '
b1 -
#180
b0 ;
b11 %
b11 .
b11 7
b0 9
b11 8
0!
b11 "
b10 3
b11 +
b10 '
b10 -
#185
b110 ;
b100 %
b100 .
b100 7
b1 9
0!
b100 "
b11 3
b100 +
b11 '
b11 -
#190
b0 ;
b101 %
b101 .
b101 7
b0 9
b101 8
0!
b101 "
b100 3
b101 +
b100 '
b100 -
#195
b10 ;
b110 %
b110 .
b110 7
b1 9
0!
b110 "
b101 3
b110 +
b101 '
b101 -
#200
b0 ;
b111 %
b111 .
b111 7
b0 9
b111 8
0!
b111 "
b110 3
b111 +
b110 '
b110 -
#205
b1110 ;
b1000 %
b1000 .
b1000 7
b1 9
0!
b1000 "
b111 3
b1000 +
b111 '
b111 -
#210
0:
b0 ;
b0 /
06
b1001 %
b1001 .
b1001 7
b0 9
b1001 8
0!
b1001 "
b1000 3
b1001 +
b1000 '
b1000 -
#215
b10 ;
b1010 %
b1010 .
b1010 7
b1 9
0!
b1010 "
b1001 3
b1010 +
b1001 '
b1001 -
#220
b0 ;
b1011 %
b1011 .
b1011 7
b0 9
b1011 8
0!
b1011 "
b1010 3
b1011 +
b1010 '
b1010 -
#225
b110 ;
b1100 %
b1100 .
b1100 7
b1 9
0!
b1100 "
b1011 3
b1100 +
b1011 '
b1011 -
#230
0:
b0 /
06
b0 ;
b1101 %
b1101 .
b1101 7
b0 9
b1101 8
0!
b1101 "
b1100 3
b1101 +
b1100 '
b1100 -
#235
b10 ;
b1110 %
b1110 .
b1110 7
b1 9
0!
b1110 "
b1101 3
b1110 +
b1101 '
b1101 -
#240
0:
b0 A
b0 E
0>
b0 1
b1 /
16
b0 0
05
b0 ;
b1111 %
b1111 .
b1111 7
b0 9
b1111 8
0!
b1111 "
b1110 3
b1111 +
b1110 '
b1110 -
#245
1:
b1 A
b1 E
1>
b10 1
b1 0
15
b11110 ;
b10000 %
b10000 .
b0 7
b1 9
0!
b10000 "
b1111 3
b10000 +
b1111 '
b1111 -
#250
0>
b0 1
0:
b0 0
05
b0 E
b0 ;
b0 /
06
b1 7
b10001 %
b10001 .
b1 A
b0 9
b1 8
b1 B
0!
b10001 "
b0 3
b1 =
b10001 +
b10000 '
b10000 -
#255
b10 ;
b10010 %
b10010 .
b10 7
b1 9
0!
b10010 "
b1 3
b10010 +
b10001 '
b10001 -
#260
b0 ;
b10011 %
b10011 .
b11 7
b0 9
b11 8
0!
b10011 "
b10 3
b10011 +
b10010 '
b10010 -
#265
b110 ;
b10100 %
b10100 .
b100 7
b1 9
0!
b10100 "
b11 3
b10100 +
b10011 '
b10011 -
#270
b0 ;
b10101 %
b10101 .
b101 7
b0 9
b101 8
0!
b10101 "
b100 3
b10101 +
b10100 '
b10100 -
#275
b10 ;
b10110 %
b10110 .
b110 7
b1 9
0!
b10110 "
b101 3
b10110 +
b10101 '
b10101 -
#280
b0 ;
b10111 %
b10111 .
b111 7
b0 9
b111 8
0!
b10111 "
b110 3
b10111 +
b10110 '
b10110 -
#285
b1110 ;
b11000 %
b11000 .
b1000 7
b1 9
0!
b11000 "
b111 3
b11000 +
b10111 '
b10111 -
#290
0:
b0 ;
b0 /
06
b11001 %
b11001 .
b1001 7
b0 9
b1001 8
0!
b11001 "
b1000 3
b11001 +
b11000 '
b11000 -
#295
b10 ;
b11010 %
b11010 .
b1010 7
b1 9
0!
b11010 "
b1001 3
b11010 +
b11001 '
b11001 -
#300
b0 ;
b11011 %
b11011 .
b1011 7
b0 9
b1011 8
0!
b11011 "
b1010 3
b11011 +
b11010 '
b11010 -
#305
b110 ;
b11100 %
b11100 .
b1100 7
b1 9
0!
b11100 "
b1011 3
b11100 +
b11011 '
b11011 -
#310
0:
b0 /
06
b0 ;
b11101 %
b11101 .
b1101 7
b0 9
b1101 8
0!
b11101 "
b1100 3
b11101 +
b11100 '
b11100 -
#315
b10 ;
b11110 %
b11110 .
b1110 7
b1 9
0!
b11110 "
b1101 3
b11110 +
b11101 '
b11101 -
#320
0:
b1 A
b0 E
0>
b0 1
b1 /
16
b0 0
05
b0 ;
b11111 %
b11111 .
b1111 7
b0 9
b1111 8
0!
b11111 "
b1110 3
b11111 +
b11110 '
b11110 -
#325
1:
b10 A
b11 E
1>
b10 1
b1 0
15
b11110 ;
b100000 %
b100000 .
b0 7
b1 9
0!
b100000 "
b1111 3
b10 *
b0 +
b11111 '
b11111 -
#330
0>
b0 1
b0 0
05
0:
b0 E
b0 /
06
b0 ;
b10 7
b10 %
b10 .
b0 A
b0 B
b0 9
b10 8
0!
b0 3
b0 =
b10 "
b10 2
b1 +
b0 '
b0 -
b10 &
b10 ,
#335
b11 %
b11 .
b11 7
b11 8
0!
b11 "
b1 3
b10 +
b1 '
b1 -
#340
b100 ;
b100 %
b100 .
b100 7
b10 8
b10 9
0!
b100 "
b10 3
b11 +
b10 '
b10 -
#345
b101 %
b101 .
b101 7
b11 8
0!
b101 "
b11 3
b100 +
b11 '
b11 -
#350
b0 ;
b110 %
b110 .
b110 7
b0 9
b110 8
0!
b110 "
b100 3
b101 +
b100 '
b100 -
#355
b111 %
b111 .
b111 7
b111 8
0!
b111 "
b101 3
b110 +
b101 '
b101 -
#360
b1100 ;
b1000 %
b1000 .
b1000 7
b110 8
b10 9
0!
b1000 "
b110 3
b111 +
b110 '
b110 -
#365
b1001 %
b1001 .
b1001 7
b111 8
0!
b1001 "
b111 3
b1000 +
b111 '
b111 -
#370
0:
b0 ;
b0 /
06
b1010 %
b1010 .
b1010 7
b0 9
b1010 8
0!
b1010 "
b1000 3
b1001 +
b1000 '
b1000 -
#375
b1011 %
b1011 .
b1011 7
b1011 8
0!
b1011 "
b1001 3
b1010 +
b1001 '
b1001 -
#380
b100 ;
b1100 %
b1100 .
b1100 7
b1010 8
b10 9
0!
b1100 "
b1010 3
b1011 +
b1010 '
b1010 -
#385
b1101 %
b1101 .
b1101 7
b1011 8
0!
b1101 "
b1011 3
b1100 +
b1011 '
b1011 -
#390
b0 A
b0 E
0>
0:
b0 1
b0 0
05
b0 /
06
b0 ;
b1110 %
b1110 .
b1110 7
b0 9
b1110 8
0!
b1110 "
b1100 3
b1101 +
b1100 '
b1100 -
#395
b1 /
16
b1111 %
b1111 .
b1111 7
b1111 8
0!
b1111 "
b1101 3
b1110 +
b1101 '
b1101 -
#400
b1 A
1:
b1 E
1>
b10 1
b1 0
15
b0 /
06
b11100 ;
b10000 %
b10000 .
b0 7
b1110 8
b10 9
0!
b10000 "
b1110 3
b1111 +
b1110 '
b1110 -
#405
b1 /
16
b10001 %
b10001 .
b1 7
b1111 8
0!
b10001 "
b1111 3
b10000 +
b1111 '
b1111 -
#410
0>
b0 1
b0 0
05
0:
b0 E
b0 ;
b0 /
06
b10 7
b10010 %
b10010 .
b1 A
b0 9
b10 8
b1 B
0!
b10010 "
b0 3
b1 =
b10001 +
b10000 '
b10000 -
#415
b10011 %
b10011 .
b11 7
b11 8
0!
b10011 "
b1 3
b10010 +
b10001 '
b10001 -
#420
b100 ;
b10100 %
b10100 .
b100 7
b10 8
b10 9
0!
b10100 "
b10 3
b10011 +
b10010 '
b10010 -
#425
b10101 %
b10101 .
b101 7
b11 8
0!
b10101 "
b11 3
b10100 +
b10011 '
b10011 -
#430
b0 ;
b10110 %
b10110 .
b110 7
b0 9
b110 8
0!
b10110 "
b100 3
b10101 +
b10100 '
b10100 -
#435
b10111 %
b10111 .
b111 7
b111 8
0!
b10111 "
b101 3
b10110 +
b10101 '
b10101 -
#440
b1100 ;
b11000 %
b11000 .
b1000 7
b110 8
b10 9
0!
b11000 "
b110 3
b10111 +
b10110 '
b10110 -
#445
b11001 %
b11001 .
b1001 7
b111 8
0!
b11001 "
b111 3
b11000 +
b10111 '
b10111 -
#450
0:
b0 ;
b0 /
06
b11010 %
b11010 .
b1010 7
b0 9
b1010 8
0!
b11010 "
b1000 3
b11001 +
b11000 '
b11000 -
#455
b11011 %
b11011 .
b1011 7
b1011 8
0!
b11011 "
b1001 3
b11010 +
b11001 '
b11001 -
#460
b100 ;
b11100 %
b11100 .
b1100 7
b1010 8
b10 9
0!
b11100 "
b1010 3
b11011 +
b11010 '
b11010 -
#465
b11101 %
b11101 .
b1101 7
b1011 8
0!
b11101 "
b1011 3
b11100 +
b11011 '
b11011 -
#470
b1 A
b0 E
0>
0:
b0 1
b0 0
05
b0 /
06
b0 ;
b11110 %
b11110 .
b1110 7
b0 9
b1110 8
0!
b11110 "
b1100 3
b11101 +
b11100 '
b11100 -
#475
b1 /
16
b11111 %
b11111 .
b1111 7
b1111 8
0!
b11111 "
b1101 3
b11110 +
b11101 '
b11101 -
#480
b10 A
1:
b11 E
1>
b10 1
b1 0
15
b0 /
06
b11100 ;
b100000 %
b100000 .
b0 7
b1110 8
b10 9
0!
b100000 "
b1110 3
b11111 +
b11110 '
b11110 -
#485
b1 /
16
b100001 %
b100001 .
b1 7
b1111 8
0!
b100001 "
b1111 3
b11 *
b0 +
b11111 '
b11111 -
#490
0>
b0 1
b0 0
05
0:
b0 E
b0 ;
b0 /
06
b11 7
b11 %
b11 .
b0 A
b0 9
b11 8
b0 B
0!
b0 3
b0 =
b11 "
b11 2
b1 +
b0 '
b0 -
b11 &
b11 ,
#495
b110 ;
b100 %
b100 .
b100 7
b1 9
0!
b100 "
b1 3
b10 +
b1 '
b1 -
#500
b100 ;
b101 %
b101 .
b101 7
b10 9
0!
b101 "
b10 3
b11 +
b10 '
b10 -
#505
b110 ;
b110 %
b110 .
b110 7
b11 9
0!
b110 "
b11 3
b100 +
b11 '
b11 -
#510
b0 ;
b111 %
b111 .
b111 7
b0 9
b111 8
0!
b111 "
b100 3
b101 +
b100 '
b100 -
#515
b1110 ;
b1000 %
b1000 .
b1000 7
b1 9
0!
b1000 "
b101 3
b110 +
b101 '
b101 -
#520
b1100 ;
b1001 %
b1001 .
b1001 7
b10 9
0!
b1001 "
b110 3
b111 +
b110 '
b110 -
#525
b1110 ;
b1010 %
b1010 .
b1010 7
b11 9
0!
b1010 "
b111 3
b1000 +
b111 '
b111 -
#530
0:
b0 ;
b0 /
06
b1011 %
b1011 .
b1011 7
b0 9
b1011 8
0!
b1011 "
b1000 3
b1001 +
b1000 '
b1000 -
#535
b110 ;
b1100 %
b1100 .
b1100 7
b1 9
0!
b1100 "
b1001 3
b1010 +
b1001 '
b1001 -
#540
b100 ;
b1101 %
b1101 .
b1101 7
b10 9
0!
b1101 "
b1010 3
b1011 +
b1010 '
b1010 -
#545
b110 ;
b1110 %
b1110 .
b1110 7
b11 9
0!
b1110 "
b1011 3
b1100 +
b1011 '
b1011 -
#550
b0 A
b0 E
0>
0:
b0 1
b0 0
05
b1 /
16
b0 ;
b1111 %
b1111 .
b1111 7
b0 9
b1111 8
0!
b1111 "
b1100 3
b1101 +
b1100 '
b1100 -
#555
1:
b1 A
b1 E
1>
b10 1
b1 0
15
b11110 ;
b10000 %
b10000 .
b0 7
b1 9
0!
b10000 "
b1101 3
b1110 +
b1101 '
b1101 -
#560
b11100 ;
b10001 %
b10001 .
b1 7
b10 9
0!
b10001 "
b1110 3
b1111 +
b1110 '
b1110 -
#565
b11110 ;
b10010 %
b10010 .
b10 7
b11 9
0!
b10010 "
b1111 3
b10000 +
b1111 '
b1111 -
#570
0>
b0 1
b0 0
05
0:
b0 E
b0 ;
b0 /
06
b11 7
b10011 %
b10011 .
b1 A
b0 9
b11 8
b1 B
0!
b10011 "
b0 3
b1 =
b10001 +
b10000 '
b10000 -
#575
b110 ;
b10100 %
b10100 .
b100 7
b1 9
0!
b10100 "
b1 3
b10010 +
b10001 '
b10001 -
#580
b100 ;
b10101 %
b10101 .
b101 7
b10 9
0!
b10101 "
b10 3
b10011 +
b10010 '
b10010 -
#585
b110 ;
b10110 %
b10110 .
b110 7
b11 9
0!
b10110 "
b11 3
b10100 +
b10011 '
b10011 -
#590
b0 ;
b10111 %
b10111 .
b111 7
b0 9
b111 8
0!
b10111 "
b100 3
b10101 +
b10100 '
b10100 -
#595
b1110 ;
b11000 %
b11000 .
b1000 7
b1 9
0!
b11000 "
b101 3
b10110 +
b10101 '
b10101 -
#600
b1100 ;
b11001 %
b11001 .
b1001 7
b10 9
0!
b11001 "
b110 3
b10111 +
b10110 '
b10110 -
#605
b1110 ;
b11010 %
b11010 .
b1010 7
b11 9
0!
b11010 "
b111 3
b11000 +
b10111 '
b10111 -
#610
0:
b0 ;
b0 /
06
b11011 %
b11011 .
b1011 7
b0 9
b1011 8
0!
b11011 "
b1000 3
b11001 +
b11000 '
b11000 -
#615
b110 ;
b11100 %
b11100 .
b1100 7
b1 9
0!
b11100 "
b1001 3
b11010 +
b11001 '
b11001 -
#620
b100 ;
b11101 %
b11101 .
b1101 7
b10 9
0!
b11101 "
b1010 3
b11011 +
b11010 '
b11010 -
#625
b110 ;
b11110 %
b11110 .
b1110 7
b11 9
0!
b11110 "
b1011 3
b11100 +
b11011 '
b11011 -
#630
b1 A
b0 E
0>
0:
b0 1
b0 0
05
b1 /
16
b0 ;
b11111 %
b11111 .
b1111 7
b0 9
b1111 8
0!
b11111 "
b1100 3
b11101 +
b11100 '
b11100 -
#635
1:
b10 A
b11 E
1>
b10 1
b1 0
15
b11110 ;
b100000 %
b100000 .
b0 7
b1 9
0!
b100000 "
b1101 3
b11110 +
b11101 '
b11101 -
#640
b11100 ;
b100001 %
b100001 .
b1 7
b10 9
0!
b100001 "
b1110 3
b11111 +
b11110 '
b11110 -
#645
b11110 ;
b100010 %
b100010 .
b10 7
b11 9
0!
b100010 "
b1111 3
b100 *
b0 +
b11111 '
b11111 -
#650
0>
b0 1
b0 0
05
0:
b0 E
b0 /
06
b0 ;
b100 7
b100 %
b100 .
b0 A
b0 B
b0 9
b100 8
0!
b0 3
b0 =
b100 "
b100 2
b1 +
b0 '
b0 -
b100 &
b100 ,
#655
b101 %
b101 .
b101 7
b101 8
0!
b101 "
b1 3
b10 +
b1 '
b1 -
#660
b110 %
b110 .
b110 7
b110 8
0!
b110 "
b10 3
b11 +
b10 '
b10 -
#665
b111 %
b111 .
b111 7
b111 8
0!
b111 "
b11 3
b100 +
b11 '
b11 -
#670
b1000 ;
b1000 %
b1000 .
b1000 7
b100 8
b100 9
0!
b1000 "
b100 3
b101 +
b100 '
b100 -
#675
b1001 %
b1001 .
b1001 7
b101 8
0!
b1001 "
b101 3
b110 +
b101 '
b101 -
#680
b1010 %
b1010 .
b1010 7
b110 8
0!
b1010 "
b110 3
b111 +
b110 '
b110 -
#685
b1011 %
b1011 .
b1011 7
b111 8
0!
b1011 "
b111 3
b1000 +
b111 '
b111 -
#690
0:
b0 ;
b0 /
06
b1100 %
b1100 .
b1100 7
b0 9
b1100 8
0!
b1100 "
b1000 3
b1001 +
b1000 '
b1000 -
#695
b1101 %
b1101 .
b1101 7
b1101 8
0!
b1101 "
b1001 3
b1010 +
b1001 '
b1001 -
#700
b1110 %
b1110 .
b1110 7
b1110 8
0!
b1110 "
b1010 3
b1011 +
b1010 '
b1010 -
#705
b1 /
16
b1111 %
b1111 .
b1111 7
b1111 8
0!
b1111 "
b1011 3
b1100 +
b1011 '
b1011 -
#710
b1 A
b1 E
1>
b10 1
1:
b1 0
15
b0 /
06
b11000 ;
b10000 %
b10000 .
b0 7
b1100 8
b100 9
0!
b10000 "
b1100 3
b1101 +
b1100 '
b1100 -
#715
b10001 %
b10001 .
b1 7
b1101 8
0!
b10001 "
b1101 3
b1110 +
b1101 '
b1101 -
#720
b10010 %
b10010 .
b10 7
b1110 8
0!
b10010 "
b1110 3
b1111 +
b1110 '
b1110 -
#725
b1 /
16
b10011 %
b10011 .
b11 7
b1111 8
0!
b10011 "
b1111 3
b10000 +
b1111 '
b1111 -
#730
0>
b0 1
b0 0
05
0:
b0 E
b0 ;
b0 /
06
b100 7
b10100 %
b10100 .
b1 A
b0 9
b100 8
b1 B
0!
b10100 "
b0 3
b1 =
b10001 +
b10000 '
b10000 -
#735
b10101 %
b10101 .
b101 7
b101 8
0!
b10101 "
b1 3
b10010 +
b10001 '
b10001 -
#740
b10110 %
b10110 .
b110 7
b110 8
0!
b10110 "
b10 3
b10011 +
b10010 '
b10010 -
#745
b10111 %
b10111 .
b111 7
b111 8
0!
b10111 "
b11 3
b10100 +
b10011 '
b10011 -
#750
b1000 ;
b11000 %
b11000 .
b1000 7
b100 8
b100 9
0!
b11000 "
b100 3
b10101 +
b10100 '
b10100 -
#755
b11001 %
b11001 .
b1001 7
b101 8
0!
b11001 "
b101 3
b10110 +
b10101 '
b10101 -
#760
b11010 %
b11010 .
b1010 7
b110 8
0!
b11010 "
b110 3
b10111 +
b10110 '
b10110 -
#765
b11011 %
b11011 .
b1011 7
b111 8
0!
b11011 "
b111 3
b11000 +
b10111 '
b10111 -
#770
0:
b0 ;
b0 /
06
b11100 %
b11100 .
b1100 7
b0 9
b1100 8
0!
b11100 "
b1000 3
b11001 +
b11000 '
b11000 -
#775
b11101 %
b11101 .
b1101 7
b1101 8
0!
b11101 "
b1001 3
b11010 +
b11001 '
b11001 -
#780
b11110 %
b11110 .
b1110 7
b1110 8
0!
b11110 "
b1010 3
b11011 +
b11010 '
b11010 -
#785
b1 /
16
b11111 %
b11111 .
b1111 7
b1111 8
0!
b11111 "
b1011 3
b11100 +
b11011 '
b11011 -
#790
b10 A
b11 E
1>
b10 1
1:
b1 0
15
b0 /
06
b11000 ;
b100000 %
b100000 .
b0 7
b1100 8
b100 9
0!
b100000 "
b1100 3
b11101 +
b11100 '
b11100 -
#795
b100001 %
b100001 .
b1 7
b1101 8
0!
b100001 "
b1101 3
b11110 +
b11101 '
b11101 -
#800
b100010 %
b100010 .
b10 7
b1110 8
0!
b100010 "
b1110 3
b11111 +
b11110 '
b11110 -
#805
b1 /
16
b100011 %
b100011 .
b11 7
b1111 8
0!
b100011 "
b1111 3
b101 *
b0 +
b11111 '
b11111 -
#810
0>
b0 1
b0 0
05
0:
b0 E
b0 ;
b0 /
06
b101 7
b101 %
b101 .
b0 A
b0 9
b101 8
b0 B
0!
b0 3
b0 =
b101 "
b101 2
b1 +
b0 '
b0 -
b101 &
b101 ,
#815
b10 ;
b110 %
b110 .
b110 7
b1 9
0!
b110 "
b1 3
b10 +
b1 '
b1 -
#820
b0 ;
b111 %
b111 .
b111 7
b0 9
b111 8
0!
b111 "
b10 3
b11 +
b10 '
b10 -
#825
b1110 ;
b1000 %
b1000 .
b1000 7
b1 9
0!
b1000 "
b11 3
b100 +
b11 '
b11 -
#830
b1000 ;
b1001 %
b1001 .
b1001 7
b101 8
b100 9
0!
b1001 "
b100 3
b101 +
b100 '
b100 -
#835
b1010 ;
b1010 %
b1010 .
b1010 7
b101 9
0!
b1010 "
b101 3
b110 +
b101 '
b101 -
#840
b1000 ;
b1011 %
b1011 .
b1011 7
b100 9
b111 8
0!
b1011 "
b110 3
b111 +
b110 '
b110 -
#845
b1110 ;
b1100 %
b1100 .
b1100 7
b101 9
0!
b1100 "
b111 3
b1000 +
b111 '
b111 -
#850
0:
b0 ;
b0 /
06
b1101 %
b1101 .
b1101 7
b0 9
b1101 8
0!
b1101 "
b1000 3
b1001 +
b1000 '
b1000 -
#855
b10 ;
b1110 %
b1110 .
b1110 7
b1 9
0!
b1110 "
b1001 3
b1010 +
b1001 '
b1001 -
#860
0:
b0 A
b0 E
0>
b0 1
b1 /
16
b0 0
05
b0 ;
b1111 %
b1111 .
b1111 7
b0 9
b1111 8
0!
b1111 "
b1010 3
b1011 +
b1010 '
b1010 -
#865
1:
b1 A
b1 E
1>
b10 1
b1 0
15
b11110 ;
b10000 %
b10000 .
b0 7
b1 9
0!
b10000 "
b1011 3
b1100 +
b1011 '
b1011 -
#870
b1 A
b1 E
1>
b10 1
b0 /
06
b1 0
15
b11000 ;
b10001 %
b10001 .
b1 7
b1101 8
b100 9
0!
b10001 "
b1100 3
b1101 +
b1100 '
b1100 -
#875
b11010 ;
b10010 %
b10010 .
b10 7
b101 9
0!
b10010 "
b1101 3
b1110 +
b1101 '
b1101 -
#880
b1 /
16
b11000 ;
b10011 %
b10011 .
b11 7
b100 9
b1111 8
0!
b10011 "
b1110 3
b1111 +
b1110 '
b1110 -
#885
b11110 ;
b10100 %
b10100 .
b100 7
b101 9
0!
b10100 "
b1111 3
b10000 +
b1111 '
b1111 -
#890
0>
b0 1
b0 0
05
0:
b0 E
b0 ;
b0 /
06
b101 7
b10101 %
b10101 .
b1 A
b0 9
b101 8
b1 B
0!
b10101 "
b0 3
b1 =
b10001 +
b10000 '
b10000 -
#895
b10 ;
b10110 %
b10110 .
b110 7
b1 9
0!
b10110 "
b1 3
b10010 +
b10001 '
b10001 -
#900
b0 ;
b10111 %
b10111 .
b111 7
b0 9
b111 8
0!
b10111 "
b10 3
b10011 +
b10010 '
b10010 -
#905
b1110 ;
b11000 %
b11000 .
b1000 7
b1 9
0!
b11000 "
b11 3
b10100 +
b10011 '
b10011 -
#910
b1000 ;
b11001 %
b11001 .
b1001 7
b101 8
b100 9
0!
b11001 "
b100 3
b10101 +
b10100 '
b10100 -
#915
b1010 ;
b11010 %
b11010 .
b1010 7
b101 9
0!
b11010 "
b101 3
b10110 +
b10101 '
b10101 -
#920
b1000 ;
b11011 %
b11011 .
b1011 7
b100 9
b111 8
0!
b11011 "
b110 3
b10111 +
b10110 '
b10110 -
#925
b1110 ;
b11100 %
b11100 .
b1100 7
b101 9
0!
b11100 "
b111 3
b11000 +
b10111 '
b10111 -
#930
0:
b0 ;
b0 /
06
b11101 %
b11101 .
b1101 7
b0 9
b1101 8
0!
b11101 "
b1000 3
b11001 +
b11000 '
b11000 -
