build (read-only)/SignedMultiplier_tb.vcd
$date
	Sun Mar 19 18:19:57 2017
$end
$version
	Icarus Verilog
$end
$timescale
	1ns
$end
$scope module SignedMultiplier_tb $end
$var wire 8 ! ref_P [7:0] $end
$var wire 1 " err $end
$var wire 8 # P [7:0] $end
$var reg 4 $ A [3:0] $end
$var reg 4 % B [3:0] $end
$var integer 32 & i [31:0] $end
$var integer 32 ' j [31:0] $end
$scope module uut $end
$var wire 4 ( A [3:0] $end
$var wire 4 ) B [3:0] $end
$var wire 8 * P [7:0] $end
$var wire 4 + Carry [3:0] $end
$scope begin addbit[0] $end
$scope module bit $end
$var wire 8 , A [7:0] $end
$var wire 1 - Ci $end
$var wire 9 . c [8:0] $end
$var wire 8 / S [7:0] $end
$var wire 1 0 Co $end
$var wire 8 1 B [7:0] $end
$scope begin addbit[0] $end
$scope module bit $end
$var wire 1 2 a $end
$var wire 1 3 b $end
$var wire 1 4 ci $end
$var wire 1 5 co $end
$var wire 1 6 s $end
$upscope $end
$upscope $end
$scope begin addbit[1] $end
$scope module bit $end
$var wire 1 7 a $end
$var wire 1 8 b $end
$var wire 1 9 ci $end
$var wire 1 : co $end
$var wire 1 ; s $end
$upscope $end
$upscope $end
$scope begin addbit[2] $end
$scope module bit $end
$var wire 1 < a $end
$var wire 1 = b $end
$var wire 1 > ci $end
$var wire 1 ? co $end
$var wire 1 @ s $end
$upscope $end
$upscope $end
$scope begin addbit[3] $end
$scope module bit $end
$var wire 1 A a $end
$var wire 1 B b $end
$var wire 1 C ci $end
$var wire 1 D co $end
$var wire 1 E s $end
$upscope $end
$upscope $end
$scope begin addbit[4] $end
$scope module bit $end
$var wire 1 F a $end
$var wire 1 G b $end
$var wire 1 H ci $end
$var wire 1 I co $end
$var wire 1 J s $end
$upscope $end
$upscope $end
$scope begin addbit[5] $end
$scope module bit $end
$var wire 1 K a $end
$var wire 1 L b $end
$var wire 1 M ci $end
$var wire 1 N co $end
$var wire 1 O s $end
$upscope $end
$upscope $end
$scope begin addbit[6] $end
$scope module bit $end
$var wire 1 P a $end
$var wire 1 Q b $end
$var wire 1 R ci $end
$var wire 1 S co $end
$var wire 1 T s $end
$upscope $end
$upscope $end
$scope begin addbit[7] $end
$scope module bit $end
$var wire 1 U a $end
$var wire 1 V b $end
$var wire 1 W ci $end
$var wire 1 X co $end
$var wire 1 Y s $end
$upscope $end
$upscope $end
$upscope $end
$upscope $end
$scope begin addbit[1] $end
$scope module bit $end
$var wire 8 Z A [7:0] $end
$var wire 1 [ Ci $end
$var wire 9 \ c [8:0] $end
$var wire 8 ] S [7:0] $end
$var wire 1 ^ Co $end
$var wire 8 _ B [7:0] $end
$scope begin addbit[0] $end
$scope module bit $end
$var wire 1 ` a $end
$var wire 1 a b $end
$var wire 1 b ci $end
$var wire 1 c co $end
$var wire 1 d s $end
$upscope $end
$upscope $end
$scope begin addbit[1] $end
$scope module bit $end
$var wire 1 e a $end
$var wire 1 f b $end
$var wire 1 g ci $end
$var wire 1 h co $end
$var wire 1 i s $end
$upscope $end
$upscope $end
$scope begin addbit[2] $end
$scope module bit $end
$var wire 1 j a $end
$var wire 1 k b $end
$var wire 1 l ci $end
$var wire 1 m co $end
$var wire 1 n s $end
$upscope $end
$upscope $end
$scope begin addbit[3] $end
$scope module bit $end
$var wire 1 o a $end
$var wire 1 p b $end
$var wire 1 q ci $end
$var wire 1 r co $end
$var wire 1 s s $end
$upscope $end
$upscope $end
$scope begin addbit[4] $end
$scope module bit $end
$var wire 1 t a $end
$var wire 1 u b $end
$var wire 1 v ci $end
$var wire 1 w co $end
$var wire 1 x s $end
$upscope $end
$upscope $end
$scope begin addbit[5] $end
$scope module bit $end
$var wire 1 y a $end
$var wire 1 z b $end
$var wire 1 { ci $end
$var wire 1 | co $end
$var wire 1 } s $end
$upscope $end
$upscope $end
$scope begin addbit[6] $end
$scope module bit $end
$var wire 1 ~ a $end
$var wire 1 !" b $end
$var wire 1 "" ci $end
$var wire 1 #" co $end
$var wire 1 $" s $end
$upscope $end
$upscope $end
$scope begin addbit[7] $end
$scope module bit $end
$var wire 1 %" a $end
$var wire 1 &" b $end
$var wire 1 '" ci $end
$var wire 1 (" co $end
$var wire 1 )" s $end
$upscope $end
$upscope $end
$upscope $end
$upscope $end
$scope begin addbit[2] $end
$scope module bit $end
$var wire 8 *" A [7:0] $end
$var wire 1 +" Ci $end
$var wire 9 ," c [8:0] $end
$var wire 8 -" S [7:0] $end
$var wire 1 ." Co $end
$var wire 8 /" B [7:0] $end
$scope begin addbit[0] $end
$scope module bit $end
$var wire 1 0" a $end
$var wire 1 1" b $end
$var wire 1 2" ci $end
$var wire 1 3" co $end
$var wire 1 4" s $end
$upscope $end
$upscope $end
$scope begin addbit[1] $end
$scope module bit $end
$var wire 1 5" a $end
$var wire 1 6" b $end
$var wire 1 7" ci $end
$var wire 1 8" co $end
$var wire 1 9" s $end
$upscope $end
$upscope $end
$scope begin addbit[2] $end
$scope module bit $end
$var wire 1 :" a $end
$var wire 1 ;" b $end
$var wire 1 <" ci $end
$var wire 1 =" co $end
$var wire 1 >" s $end
$upscope $end
$upscope $end
$scope begin addbit[3] $end
$scope module bit $end
$var wire 1 ?" a $end
$var wire 1 @" b $end
$var wire 1 A" ci $end
$var wire 1 B" co $end
$var wire 1 C" s $end
$upscope $end
$upscope $end
$scope begin addbit[4] $end
$scope module bit $end
$var wire 1 D" a $end
$var wire 1 E" b $end
$var wire 1 F" ci $end
$var wire 1 G" co $end
$var wire 1 H" s $end
$upscope $end
$upscope $end
$scope begin addbit[5] $end
$scope module bit $end
$var wire 1 I" a $end
$var wire 1 J" b $end
$var wire 1 K" ci $end
$var wire 1 L" co $end
$var wire 1 M" s $end
$upscope $end
$upscope $end
$scope begin addbit[6] $end
$scope module bit $end
$var wire 1 N" a $end
$var wire 1 O" b $end
$var wire 1 P" ci $end
$var wire 1 Q" co $end
$var wire 1 R" s $end
$upscope $end
$upscope $end
$scope begin addbit[7] $end
$scope module bit $end
$var wire 1 S" a $end
$var wire 1 T" b $end
$var wire 1 U" ci $end
$var wire 1 V" co $end
$var wire 1 W" s $end
$upscope $end
$upscope $end
$upscope $end
$upscope $end
$scope begin genblk0001 $end
$scope begin genblk0002 $end
$scope begin genblk4 $end
$upscope $end
$upscope $end
$scope begin genblk002 $end
$scope begin genblk3 $end
$upscope $end
$upscope $end
$scope begin genblk02 $end
$scope begin genblk3 $end
$upscope $end
$upscope $end
$scope begin genblk2 $end
$scope begin genblk3 $end
$upscope $end
$upscope $end
$upscope $end
$scope begin genblk0007 $end
$scope begin genblk8 $end
$scope begin genblk9 $end
$upscope $end
$upscope $end
$upscope $end
$scope begin genblk001 $end
$scope begin genblk0002 $end
$scope begin genblk3 $end
$upscope $end
$upscope $end
$scope begin genblk002 $end
$scope begin genblk4 $end
$upscope $end
$upscope $end
$scope begin genblk02 $end
$scope begin genblk4 $end
$upscope $end
$upscope $end
$scope begin genblk2 $end
$scope begin genblk4 $end
$upscope $end
$upscope $end
$upscope $end
$scope begin genblk005 $end
$scope begin genblk006 $end
$upscope $end
$scope begin genblk06 $end
$upscope $end
$scope begin genblk6 $end
$upscope $end
$upscope $end
$scope begin genblk007 $end
$scope begin genblk08 $end
$scope begin genblk10 $end
$upscope $end
$upscope $end
$scope begin genblk8 $end
$scope begin genblk10 $end
$upscope $end
$upscope $end
$upscope $end
$scope begin genblk01 $end
$scope begin genblk0002 $end
$scope begin genblk3 $end
$upscope $end
$upscope $end
$scope begin genblk002 $end
$scope begin genblk4 $end
$upscope $end
$upscope $end
$scope begin genblk02 $end
$scope begin genblk4 $end
$upscope $end
$upscope $end
$scope begin genblk2 $end
$scope begin genblk4 $end
$upscope $end
$upscope $end
$upscope $end
$scope begin genblk05 $end
$scope begin genblk06 $end
$upscope $end
$scope begin genblk6 $end
$upscope $end
$upscope $end
$scope begin genblk07 $end
$scope begin genblk008 $end
$scope begin genblk10 $end
$upscope $end
$upscope $end
$scope begin genblk08 $end
$scope begin genblk10 $end
$upscope $end
$upscope $end
$scope begin genblk8 $end
$scope begin genblk10 $end
$upscope $end
$upscope $end
$upscope $end
$scope begin genblk1 $end
$scope begin genblk0002 $end
$scope begin genblk3 $end
$upscope $end
$upscope $end
$scope begin genblk002 $end
$scope begin genblk4 $end
$upscope $end
$upscope $end
$scope begin genblk02 $end
$scope begin genblk4 $end
$upscope $end
$upscope $end
$scope begin genblk2 $end
$scope begin genblk4 $end
$upscope $end
$upscope $end
$upscope $end
$scope begin genblk5 $end
$scope begin genblk6 $end
$upscope $end
$upscope $end
$scope begin genblk7 $end
$scope begin genblk0008 $end
$scope begin genblk10 $end
$upscope $end
$upscope $end
$scope begin genblk008 $end
$scope begin genblk10 $end
$upscope $end
$upscope $end
$scope begin genblk08 $end
$scope begin genblk10 $end
$upscope $end
$upscope $end
$scope begin genblk8 $end
$scope begin genblk9 $end
$upscope $end
$upscope $end
$upscope $end
$upscope $end
$upscope $end
$enddefinitions $end
#0
$dumpvars
0W"
1V"
1U"
1T"
0S"
0R"
1Q"
1P"
0O"
1N"
0M"
1L"
1K"
1J"
0I"
0H"
1G"
1F"
1E"
0D"
0C"
1B"
0A"
1@"
1?"
0>"
0="
0<"
0;"
0:"
09"
08"
07"
06"
05"
04"
03"
02"
01"
00"
b10111000 /"
1."
b0 -"
b111110000 ,"
0+"
b1001000 *"
0)"
0("
0'"
0&"
0%"
1$"
0#"
1""
0!"
0~
0}
1|
0{
1z
1y
0x
0w
0v
0u
0t
1s
0r
0q
0p
1o
0n
0m
0l
0k
0j
0i
0h
0g
0f
0e
0d
0c
0b
0a
0`
b100000 _
0^
b1001000 ]
b1000000 \
0[
b101000 Z
0Y
0X
0W
0V
0U
0T
0S
0R
0Q
0P
1O
0N
1M
0L
0K
0J
1I
0H
1G
1F
1E
0D
0C
0B
1A
0@
0?
0>
0=
0<
0;
0:
09
08
07
06
05
04
03
02
b10000 1
00
b101000 /
b100000 .
0-
b11000 ,
b1000 +
b0 *
b0 )
b0 (
b0 '
b11111111111111111111111111111100 &
b0 %
b0 $
b0 #
0"
b0 !
$end
#5
b1 '
b1100 $
b1100 (
#10
b0 +
0."
0V"
1W"
0U"
0Q"
1R"
0P"
0L"
1M"
0K"
0G"
1H"
0F"
b0 ,"
0B"
1C"
b11111100 #
b11111100 *
b11111100 -"
1>"
0?"
1:"
0s
b1000100 ]
b1000100 *"
1n
0o
1j
0E
b100100 /
b100100 Z
1@
0A
1<
1"
b11111011 !
b10100 ,
b10 '
b1 %
b1 )
#15
0P"
0L"
1N"
1$"
0K"
1""
0F"
0G"
0I"
b1000000 \
1|
b0 ,"
0B"
1H"
0}
0>"
b11111000 #
b11111000 *
b11111000 -"
1C"
0D"
1y
0:"
0?"
0x
1O
0n
1H
b1000000 ]
b1000000 *"
0s
1M
1D
0t
b110000 .
1I
0j
0o
0J
0@
b100000 /
b100000 Z
0E
1A
0G
0<
1B
b11110110 !
b11000 ,
b1000 1
b11 '
b10 %
b10 )
#20
1P"
0N"
1L"
0$"
0""
1K"
1I"
b0 \
0|
1G"
1}
1F"
0y
b1110000 ,"
1B"
1D"
0O
0C"
1x
0M
b11110100 #
b11110100 *
b11110100 -"
1>"
0I
1?"
1t
1:"
1s
1J
b111100 ]
b111100 *"
1n
0H
1o
b0 .
0D
1j
1E
b11100 /
b11100 Z
1@
0A
1<
b11110001 !
b10100 ,
b100 '
b11 %
b11 )
#25
b0 +
0."
0V"
1W"
0U"
0Q"
1R"
0N"
0$"
0""
1F"
0|
b1110000 ,"
1B"
0>"
1"
0C"
1y
0:"
1?"
1O
1M"
0n
1s
1M
b11110000 #
b11110000 *
b11110000 -"
1H"
0t
b100000 .
1I
0{
1I"
0j
1o
0J
1D"
b0 \
0w
1}
0@
b101000 /
b101000 Z
1E
b111000 ]
b111000 *"
1x
1A
1G
0z
0<
0B
1u
b11101100 !
b11000 ,
b10000 1
b10000 _
b101 '
b100 %
b100 )
#30
0H"
0F"
b1100000 ,"
0B"
1C"
b11101100 #
b11101100 *
b11101100 -"
1>"
0?"
1:"
0s
b110100 ]
b110100 *"
1n
0o
1j
0E
b100100 /
b100100 Z
1@
0A
1<
b11100111 !
b10100 ,
b110 '
b101 %
b101 )
#35
1M"
1K"
0F"
1G"
b1100000 ,"
0B"
0H"
0>"
b11101000 #
b11101000 *
b11101000 -"
1C"
0{
1D"
b0 \
0w
1y
0:"
0?"
1x
1O
0n
1H
b110000 ]
b110000 *"
0s
1M
1D
0t
b110000 .
1I
0j
0o
0J
0@
b100000 /
b100000 Z
0E
1A
0G
0<
1B
b11100010 !
b11000 ,
b1000 1
b11111111111111111111111111111101 &
b0 '
b110 %
b110 )
#40
0"
b1000 +
1."
1V"
0W"
1U"
1F"
1P"
1Q"
1B"
1L"
0R"
0C"
1K"
1N"
1?"
b111110000 ,"
1G"
0M"
1$"
1s
b0 #
b0 *
b0 -"
0H"
1""
0H
0t
0I"
b1000000 \
1|
1o
b100000 .
0D
0J
0D"
0}
b101000 /
b101000 Z
1E
b1001000 ]
b1001000 *"
0x
1G
1z
0B
0u
b0 !
b10000 1
b100000 _
b1 '
b0 %
b0 )
b1101 $
b1101 (
#45
b0 +
0."
0V"
1W"
0U"
0Q"
1R"
0P"
0L"
1M"
0K"
0G"
1H"
0F"
b0 ,"
0B"
1C"
14"
b11111101 #
b11111101 *
b11111101 -"
1>"
0?"
10"
1:"
0s
1d
b1000101 ]
b1000101 *"
1n
0o
1`
1j
0E
16
b100101 /
b100101 Z
1@
0A
12
1<
1"
b11111010 !
b10101 ,
b10 '
b1 %
b1 )
#50
0P"
0L"
1N"
1$"
0K"
1""
0F"
0G"
0I"
b1000000 \
1|
b0 ,"
0B"
1H"
0}
04"
0>"
19"
b11111010 #
b11111010 *
b11111010 -"
1C"
0D"
1y
00"
0:"
15"
0?"
0x
1O
0d
0n
1H
1i
b1000010 ]
b1000010 *"
0s
1M
1D
0t
b110000 .
1I
0`
0j
1e
0o
0J
06
0@
1;
b100010 /
b100010 Z
0E
1A
0G
02
0<
18
1B
b11110100 !
b11000 ,
b1010 1
b11 '
b10 %
b10 )
#55
1P"
0N"
1L"
0$"
0""
1K"
1I"
b0 \
0|
1G"
1}
1F"
0y
b1110000 ,"
1B"
1D"
0O
0C"
1x
0M
14"
b11110111 #
b11110111 *
b11110111 -"
1>"
0I
1?"
1t
10"
1:"
1s
1J
1d
b111111 ]
b111111 *"
1n
0H
1o
b0 .
0D
1`
1j
1E
16
b11111 /
b11111 Z
1@
0A
12
1<
b11101110 !
b10101 ,
b100 '
b11 %
b11 )
#60
b0 +
0."
0V"
1W"
1P"
0U"
1L"
0Q"
1R"
1K"
1G"
0N"
0$"
1F"
0""
b1110000 ,"
1B"
0|
0C"
04"
0v
09"
1?"
0r
1y
00"
1s
05"
1O
1M"
0d
0i
1M
1>"
b11110100 #
b11110100 *
b11110100 -"
1H"
0t
b100000 .
1I
0q
0{
1I"
0`
0j
0e
1o
0J
1:"
0m
1D"
b0 \
0w
1}
06
0@
0;
b101000 /
b101000 Z
1E
1n
b111100 ]
b111100 *"
1x
1A
1G
0z
02
0<
08
0B
1k
1u
b11101000 !
b11000 ,
b10000 1
b10100 _
b101 '
b100 %
b100 )
#65
1H"
1F"
b1110000 ,"
1B"
0C"
14"
b11110001 #
b11110001 *
b11110001 -"
0>"
1q
1?"
10"
0:"
b1000 \
1m
1s
1d
b111001 ]
b111001 *"
0n
0o
1`
1j
0E
16
b100101 /
b100101 Z
1@
0A
12
1<
b11100010 !
b10101 ,
b110 '
b101 %
b101 )
#70
0F"
b1100000 ,"
0B"
0H"
04"
1>"
19"
b11101110 #
b11101110 *
b11101110 -"
1C"
0{
0q
0v
1D"
0w
1y
00"
1:"
0m
15"
0?"
b0 \
0r
1x
1O
0d
1n
1H
1i
b110110 ]
b110110 *"
0s
1M
1D
0t
b110000 .
1I
0`
0j
1e
0o
0J
06
0@
1;
b100010 /
b100010 Z
0E
1A
0G
02
0<
18
1B
b11011100 !
b11000 ,
b1010 1
b11111111111111111111111111111110 &
b0 '
b110 %
b110 )
#75
0"
b1000 +
1."
1V"
0W"
1U"
1F"
1P"
1Q"
1B"
1L"
0R"
0C"
09"
1K"
1N"
1?"
b111110000 ,"
1G"
0M"
1$"
05"
1s
0H"
1""
0i
b0 #
b0 *
b0 -"
0>"
0H
0t
0I"
b1000000 \
1|
1o
b100000 .
0D
0J
0D"
0}
0e
0:"
1E
0x
b101000 /
b101000 Z
0;
b1001000 ]
b1001000 *"
0n
1G
1z
0B
0u
08
0k
b0 !
b10000 1
b100000 _
b1 '
b0 %
b0 )
b1110 $
b1110 (
#80
b0 +
0."
0V"
1W"
0U"
0Q"
1R"
0P"
0L"
1M"
0K"
0G"
1H"
0F"
b0 ,"
0B"
1C"
19"
b11111110 #
b11111110 *
b11111110 -"
1>"
0?"
15"
1:"
0s
1i
b1000110 ]
b1000110 *"
1n
0o
1e
1j
0E
1;
b100110 /
b100110 Z
1@
0A
17
1<
1"
b11111001 !
b10110 ,
b10 '
b1 %
b1 )
#85
0P"
0L"
1N"
1$"
0K"
1""
0F"
0G"
0I"
b1000000 \
1|
b0 ,"
0B"
1H"
0}
09"
b11111100 #
b11111100 *
b11111100 -"
1C"
0D"
1y
05"
0?"
0x
1O
0i
1H
b1000100 ]
b1000100 *"
0s
1M
1D
0t
b110000 .
1I
0e
0o
0J
0;
b100100 /
b100100 Z
0E
1A
0G
07
0<
1=
1B
b11110010 !
b11000 ,
b1100 1
b11 '
b10 %
b10 )
#90
0P"
1N"
0L"
1$"
1""
0K"
0I"
b1000000 \
1|
0G"
0}
0F"
1y
b0 ,"
0B"
0D"
1O
1C"
0x
1M
19"
b11111010 #
b11111010 *
b11111010 -"
0>"
1I
0?"
0t
15"
0:"
0s
0J
1i
b1000010 ]
b1000010 *"
0n
1H
1C
0o
1D
1e
0j
b111000 .
1?
0E
1;
b100010 /
b100010 Z
0@
0A
17
1<
b11101011 !
b10110 ,
b100 '
b11 %
b11 )
#95
b0 +
0."
0V"
1W"
0U"
0Q"
1R"
09"
1{
0P"
1v
1w
0F"
0K"
0L"
1N"
05"
1r
0B"
b0 ,"
0G"
1M"
1$"
0i
1C"
b11111000 #
b11111000 *
b11111000 -"
1H"
1""
0C
0t
0I"
b1110000 \
1|
0e
0?
1o
0H
0J
0?"
0D"
0}
0;
b101000 /
b101000 Z
1E
b100000 .
0D
0s
b1000000 ]
b1000000 *"
0x
1A
1G
0z
07
0<
0=
0B
1p
1u
b11100100 !
b11000 ,
b10000 1
b11000 _
b101 '
b100 %
b100 )
#100
1P"
0N"
1L"
0$"
0""
1K"
0|
1G"
1I"
1}
1F"
0{
b1110000 ,"
1B"
1D"
0w
0C"
1x
19"
b11110110 #
b11110110 *
b11110110 -"
1>"
0v
1?"
b0 \
0r
15"
1:"
1s
1i
b111110 ]
b111110 *"
1n
0o
1e
1j
0E
1;
b100110 /
b100110 Z
1@
0A
17
1<
b11011101 !
b10110 ,
b110 '
b101 %
b101 )
#105
1F"
b1110000 ,"
1B"
1H"
09"
b11110100 #
b11110100 *
b11110100 -"
0C"
0{
0v
1D"
0w
1y
05"
1?"
b0 \
0r
1x
1O
0i
1H
b111100 ]
b111100 *"
1s
1M
1D
0t
b110000 .
1I
0e
0o
0J
0;
b100100 /
b100100 Z
0E
1A
0G
07
0<
1=
1B
b11010110 !
b11000 ,
b1100 1
b11111111111111111111111111111111 &
b0 '
b110 %
b110 )
#110
b1000 +
1."
1P"
1V"
0"
1L"
0W"
1U"
1K"
1Q"
1G"
0R"
0>"
1F"
1N"
0:"
b111110000 ,"
1B"
0M"
1$"
0n
0C"
b0 #
b0 *
b0 -"
0H"
1""
0H
0t
0I"
b1000000 \
1|
0j
1o
b100000 .
0D
0J
1?"
0D"
0}
0@
b101000 /
b101000 Z
1E
1s
b1001000 ]
b1001000 *"
0x
1G
1z
0=
0B
0p
0u
b0 !
b10000 1
b100000 _
b1 '
b0 %
b0 )
b1111 $
b1111 (
#115
b0 +
0."
0V"
1W"
0U"
0Q"
1R"
0P"
0L"
1M"
0K"
0G"
1H"
0F"
b0 ,"
0B"
1C"
14"
19"
b11111111 #
b11111111 *
b11111111 -"
1>"
0?"
10"
15"
1:"
0s
1d
1i
b1000111 ]
b1000111 *"
1n
0o
1`
1e
1j
0E
16
1;
b100111 /
b100111 Z
1@
0A
12
17
1<
1"
b11111000 !
b10111 ,
b10 '
b1 %
b1 )
#120
0P"
0L"
1N"
1$"
0K"
1""
0F"
0G"
0I"
b1000000 \
1|
b0 ,"
0B"
1H"
0}
04"
b11111110 #
b11111110 *
b11111110 -"
1C"
0D"
1y
00"
0?"
0x
1O
0d
1H
b1000110 ]
b1000110 *"
0s
1M
1D
0t
b110000 .
1I
0`
0o
0J
06
b100110 /
b100110 Z
0E
1A
0G
02
07
0<
18
1=
1B
b11110000 !
b11000 ,
b1110 1
b11 '
b10 %
b10 )
#125
0P"
1N"
0L"
1$"
1""
0K"
0I"
b1000000 \
1|
0G"
0}
0F"
1y
b0 ,"
0B"
0D"
1O
1C"
0x
1M
14"
09"
b11111101 #
b11111101 *
b11111101 -"
1>"
1I
0?"
0t
10"
05"
1:"
0s
0J
1d
0i
b1000101 ]
b1000101 *"
1n
1H
1>
1C
0o
1D
1`
0e
1:
1j
b111100 .
1?
0E
16
0;
b100101 /
b100101 Z
1@
0A
12
17
1<
b11101000 !
b10111 ,
b100 '
b11 %
b11 )
#130
b0 +
0."
0V"
1W"
0U"
0Q"
1R"
1"
04"
1{
0P"
1w
1v
0F"
0K"
0L"
1N"
00"
0j
1r
0B"
b0 ,"
0G"
1M"
1$"
0d
0@
1>"
1C"
b11111100 #
b11111100 *
b11111100 -"
1H"
1""
0>
0C
0t
0q
0I"
1|
0`
0:
0?
1o
0H
0J
1:"
b1110000 \
0m
0?"
0D"
0}
06
b101000 /
b101000 Z
1E
b100000 .
0D
1n
0s
b1000100 ]
b1000100 *"
0x
1A
1G
0z
02
07
0<
08
0=
0B
1k
1p
1u
b11100000 !
b11000 ,
b10000 1
b11100 _
b101 '
b100 %
b100 )
#135
0P"
1N"
0L"
1$"
1""
0K"
1|
0G"
0I"
0}
0F"
1{
b0 ,"
0B"
0D"
1w
1C"
0x
14"
19"
b11111011 #
b11111011 *
b11111011 -"
0>"
1v
1q
0?"
1r
10"
15"
0:"
b1111000 \
1m
0s
1d
1i
b1000011 ]
b1000011 *"
0n
0o
1`
1e
1j
0E
16
1;
b100111 /
b100111 Z
1@
0A
12
17
1<
b11011000 !
b10111 ,
b110 '
b101 %
b101 )
#140
0P"
0L"
1N"
1$"
0K"
1""
0F"
0G"
0I"
b1111000 \
1|
b0 ,"
0B"
1H"
0}
04"
b11111010 #
b11111010 *
b11111010 -"
1C"
0D"
1y
00"
0?"
0x
1O
0d
1H
b1000010 ]
b1000010 *"
0s
1M
1D
0t
b110000 .
1I
0`
0o
0J
06
b100110 /
b100110 Z
0E
1A
0G
02
07
0<
18
1=
1B
b11010000 !
b11000 ,
b1110 1
b0 &
b0 '
b110 %
b110 )
#145
b1000 +
1."
1V"
0"
0W"
1U"
1Q"
0R"
09"
1P"
1F"
1K"
1L"
05"
1B"
b111110000 ,"
1G"
0M"
0i
0>"
0C"
b0 #
b0 *
b0 -"
0H"
0H
0t
0q
0I"
0e
0j
1o
b100000 .
0D
0J
0:"
0m
1?"
0v
0D"
0{
0}
0;
0@
b101000 /
b101000 Z
1E
0n
1s
0r
b1001000 ]
b1001000 *"
0x
b1000000 \
0w
1G
1z
08
0=
0B
0k
0p
0u
b0 !
b10000 1
b100000 _
b1 '
b0 %
b0 )
b0 $
b0 (
#150
b10 '
b1 %
b1 )
#155
b11 '
b10 %
b10 )
#160
b100 '
b11 %
b11 )
#165
b101 '
b100 %
b100 )
#170
b110 '
b101 %
b101 )
#175
b1 &
b0 '
b110 %
b110 )
#180
b1 '
b0 %
b0 )
b1 $
b1 (
#185
b1 #
b1 *
b1 -"
14"
10"
b1001001 ]
b1001001 *"
1d
1`
b101001 /
b101001 Z
16
12
b11001 ,
0"
b1 !
b10 '
b1 %
b1 )
#190
04"
b10 #
b10 *
b10 -"
19"
00"
15"
0d
b1001010 ]
b1001010 *"
1i
0`
1e
06
b101010 /
b101010 Z
1;
02
18
b11000 ,
b10010 1
0"
b10 !
b11 '
b10 %
b10 )
#195
b11 #
b11 *
b11 -"
14"
10"
b1001011 ]
b1001011 *"
1d
1`
b101011 /
b101011 Z
16
12
b11001 ,
0"
b11 !
b100 '
b11 %
b11 )
#200
04"
09"
00"
05"
0d
0i
b100 #
b100 *
b100 -"
1>"
0`
0e
1:"
06
b101000 /
b101000 Z
0;
b1001100 ]
b1001100 *"
1n
02
08
1k
b11000 ,
b10000 1
b100100 _
0"
b100 !
b101 '
b100 %
b100 )
#205
b101 #
b101 *
b101 -"
14"
10"
b1001101 ]
b1001101 *"
1d
1`
b101001 /
b101001 Z
16
12
b11001 ,
0"
b101 !
b110 '
b101 %
b101 )
#210
04"
b110 #
b110 *
b110 -"
19"
00"
15"
0d
b1001110 ]
b1001110 *"
1i
0`
1e
06
b101010 /
b101010 Z
1;
02
18
b11000 ,
b10010 1
0"
b110 !
b10 &
b0 '
b110 %
b110 )
#215
09"
05"
0i
b0 #
b0 *
b0 -"
0>"
0e
0:"
b101000 /
b101000 Z
0;
b1001000 ]
b1001000 *"
0n
08
0k
b10000 1
b100000 _
0"
b0 !
b1 '
b0 %
b0 )
b10 $
b10 (
#220
b10 #
b10 *
b10 -"
19"
15"
b1001010 ]
b1001010 *"
1i
1e
b101010 /
b101010 Z
1;
17
b11010 ,
0"
b10 !
b10 '
b1 %
b1 )
#225
09"
b100 #
b100 *
b100 -"
1>"
05"
1:"
0i
b1001100 ]
b1001100 *"
1n
0e
1j
0;
b101100 /
b101100 Z
1@
07
1=
b11000 ,
b10100 1
0"
b100 !
b11 '
b10 %
b10 )
#230
b110 #
b110 *
b110 -"
19"
15"
b1001110 ]
b1001110 *"
1i
1e
b101110 /
b101110 Z
1;
17
b11010 ,
0"
b110 !
b100 '
b11 %
b11 )
#235
09"
0>"
0F"
05"
0:"
b111100000 ,"
0B"
1D"
0i
0n
b1000 #
b1000 *
b1000 -"
1C"
1x
1v
0e
0j
0?"
b1010000 \
1r
0;
b101000 /
b101000 Z
0@
b1010000 ]
b1010000 *"
0s
07
0=
1p
b11000 ,
b10000 1
b101000 _
0"
b1000 !
b101 '
b100 %
b100 )
#240
b1010 #
b1010 *
b1010 -"
19"
15"
b1010010 ]
b1010010 *"
1i
1e
b101010 /
b101010 Z
1;
17
b11010 ,
0"
b1010 !
b110 '
b101 %
b101 )
#245
09"
b1100 #
b1100 *
b1100 -"
1>"
05"
1:"
0i
b1010100 ]
b1010100 *"
1n
0e
1j
0;
b101100 /
b101100 Z
1@
07
1=
b11000 ,
b10100 1
0"
b1100 !
b11 &
b0 '
b110 %
b110 )
#250
0>"
1F"
0:"
b111110000 ,"
1B"
0D"
0n
b0 #
b0 *
b0 -"
0C"
0x
0v
0j
1?"
b1000000 \
0r
b101000 /
b101000 Z
0@
b1001000 ]
b1001000 *"
1s
0=
0p
b10000 1
b100000 _
0"
b0 !
b1 '
b0 %
b0 )
b11 $
b11 (
#255
14"
b11 #
b11 *
b11 -"
19"
10"
15"
1d
b1001011 ]
b1001011 *"
1i
1`
1e
16
b101011 /
b101011 Z
1;
12
17
b11011 ,
0"
b11 !
b10 '
b1 %
b1 )
#260
04"
b110 #
b110 *
b110 -"
1>"
00"
1:"
0d
b1001110 ]
b1001110 *"
1n
0`
1j
06
b101110 /
b101110 Z
1@
02
07
18
1=
b11000 ,
b10110 1
0"
b110 !
b11 '
b10 %
b10 )
#265
0F"
1D"
b111100000 ,"
0B"
1x
1C"
1t
0?"
1J
0>"
0s
1H
1D
0:"
0o
14"
b1001 #
b1001 *
b1001 -"
09"
0n
0E
1C
10"
05"
0j
1?
1d
b1010001 ]
b1010001 *"
0i
0@
1>
1`
0e
b111100 .
1:
16
b110001 /
b110001 Z
0;
12
17
b11011 ,
0"
b1001 !
b100 '
b11 %
b11 )
#270
1v
0t
04"
1r
0J
0H"
0q
0H
0F"
00"
b1010000 \
0m
0D
b111100000 ,"
0B"
0d
1o
1>"
b1100 #
b1100 *
b1100 -"
1C"
0>
1E
0`
0:
0j
0C
1:"
0?"
06
b101000 /
b101000 Z
0@
b100000 .
0?
1n
b1010100 ]
b1010100 *"
0s
02
07
08
0=
1k
1p
b11000 ,
b10000 1
b101100 _
0"
b1100 !
b101 '
b100 %
b100 )
#275
14"
b1111 #
b1111 *
b1111 -"
19"
10"
15"
1d
b1010111 ]
b1010111 *"
1i
1`
1e
16
b101011 /
b101011 Z
1;
12
17
b11011 ,
0"
b1111 !
b110 '
b101 %
b101 )
#280
1H"
1F"
b111110000 ,"
1B"
0C"
1?"
04"
b10010 #
b10010 *
b10010 -"
0>"
1s
1q
00"
0:"
b1011000 \
1m
0d
b1011010 ]
b1011010 *"
0n
0`
1j
06
b101110 /
b101110 Z
1@
02
07
18
1=
b11000 ,
b10110 1
0"
b10010 !
b100 &
b0 '
b110 %
b110 )
#285
0D"
0x
09"
0v
0H"
0r
1F"
05"
b111110000 ,"
1B"
0i
0>"
b0 #
b0 *
b0 -"
0C"
0q
0e
0j
0:"
b1000000 \
0m
1?"
0;
b101000 /
b101000 Z
0@
0n
b1001000 ]
b1001000 *"
1s
08
0=
0k
0p
b10000 1
b100000 _
0"
b0 !
b1 '
b0 %
b0 )
b100 $
b100 (
#290
b100 #
b100 *
b100 -"
1>"
1:"
b1001100 ]
b1001100 *"
1n
1j
b101100 /
b101100 Z
1@
1<
b11100 ,
0"
b100 !
b10 '
b1 %
b1 )
