build (read-only)/UnsignedMultiplier_tb.vcd
$date
	Sun Mar 19 17:40:36 2017
$end
$version
	Icarus Verilog
$end
$timescale
	1ns
$end
$scope module UnsignedMultiplier_tb $end
$var wire 8 ! ref_P [7:0] $end
$var wire 1 " err $end
$var wire 8 # P [7:0] $end
$var reg 4 $ A [3:0] $end
$var reg 4 % B [3:0] $end
$var integer 32 & i [31:0] $end
$var integer 32 ' j [31:0] $end
$scope module uut $end
$var wire 4 ( A [3:0] $end
$var wire 4 ) B [3:0] $end
$var wire 8 * P [7:0] $end
$var wire 4 + Carry [3:0] $end
$scope begin addbit[0] $end
$scope module bit $end
$var wire 7 , A [6:0] $end
$var wire 1 - Ci $end
$var wire 8 . c [7:0] $end
$var wire 7 / S [6:0] $end
$var wire 1 0 Co $end
$var wire 7 1 B [6:0] $end
$scope begin addbit[0] $end
$scope module bit $end
$var wire 1 2 a $end
$var wire 1 3 b $end
$var wire 1 4 ci $end
$var wire 1 5 co $end
$var wire 1 6 s $end
$upscope $end
$upscope $end
$scope begin addbit[1] $end
$scope module bit $end
$var wire 1 7 a $end
$var wire 1 8 b $end
$var wire 1 9 ci $end
$var wire 1 : co $end
$var wire 1 ; s $end
$upscope $end
$upscope $end
$scope begin addbit[2] $end
$scope module bit $end
$var wire 1 < a $end
$var wire 1 = b $end
$var wire 1 > ci $end
$var wire 1 ? co $end
$var wire 1 @ s $end
$upscope $end
$upscope $end
$scope begin addbit[3] $end
$scope module bit $end
$var wire 1 A a $end
$var wire 1 B b $end
$var wire 1 C ci $end
$var wire 1 D co $end
$var wire 1 E s $end
$upscope $end
$upscope $end
$scope begin addbit[4] $end
$scope module bit $end
$var wire 1 F a $end
$var wire 1 G b $end
$var wire 1 H ci $end
$var wire 1 I co $end
$var wire 1 J s $end
$upscope $end
$upscope $end
$scope begin addbit[5] $end
$scope module bit $end
$var wire 1 K a $end
$var wire 1 L b $end
$var wire 1 M ci $end
$var wire 1 N co $end
$var wire 1 O s $end
$upscope $end
$upscope $end
$scope begin addbit[6] $end
$scope module bit $end
$var wire 1 P a $end
$var wire 1 Q b $end
$var wire 1 R ci $end
$var wire 1 S co $end
$var wire 1 T s $end
$upscope $end
$upscope $end
$upscope $end
$upscope $end
$scope begin addbit[1] $end
$scope module bit $end
$var wire 7 U A [6:0] $end
$var wire 1 V Ci $end
$var wire 8 W c [7:0] $end
$var wire 7 X S [6:0] $end
$var wire 1 Y Co $end
$var wire 7 Z B [6:0] $end
$scope begin addbit[0] $end
$scope module bit $end
$var wire 1 [ a $end
$var wire 1 \ b $end
$var wire 1 ] ci $end
$var wire 1 ^ co $end
$var wire 1 _ s $end
$upscope $end
$upscope $end
$scope begin addbit[1] $end
$scope module bit $end
$var wire 1 ` a $end
$var wire 1 a b $end
$var wire 1 b ci $end
$var wire 1 c co $end
$var wire 1 d s $end
$upscope $end
$upscope $end
$scope begin addbit[2] $end
$scope module bit $end
$var wire 1 e a $end
$var wire 1 f b $end
$var wire 1 g ci $end
$var wire 1 h co $end
$var wire 1 i s $end
$upscope $end
$upscope $end
$scope begin addbit[3] $end
$scope module bit $end
$var wire 1 j a $end
$var wire 1 k b $end
$var wire 1 l ci $end
$var wire 1 m co $end
$var wire 1 n s $end
$upscope $end
$upscope $end
$scope begin addbit[4] $end
$scope module bit $end
$var wire 1 o a $end
$var wire 1 p b $end
$var wire 1 q ci $end
$var wire 1 r co $end
$var wire 1 s s $end
$upscope $end
$upscope $end
$scope begin addbit[5] $end
$scope module bit $end
$var wire 1 t a $end
$var wire 1 u b $end
$var wire 1 v ci $end
$var wire 1 w co $end
$var wire 1 x s $end
$upscope $end
$upscope $end
$scope begin addbit[6] $end
$scope module bit $end
$var wire 1 y a $end
$var wire 1 z b $end
$var wire 1 { ci $end
$var wire 1 | co $end
$var wire 1 } s $end
$upscope $end
$upscope $end
$upscope $end
$upscope $end
$scope begin addbit[2] $end
$scope module bit $end
$var wire 7 ~ A [6:0] $end
$var wire 1 !" Ci $end
$var wire 8 "" c [7:0] $end
$var wire 7 #" S [6:0] $end
$var wire 1 $" Co $end
$var wire 7 %" B [6:0] $end
$scope begin addbit[0] $end
$scope module bit $end
$var wire 1 &" a $end
$var wire 1 '" b $end
$var wire 1 (" ci $end
$var wire 1 )" co $end
$var wire 1 *" s $end
$upscope $end
$upscope $end
$scope begin addbit[1] $end
$scope module bit $end
$var wire 1 +" a $end
$var wire 1 ," b $end
$var wire 1 -" ci $end
$var wire 1 ." co $end
$var wire 1 /" s $end
$upscope $end
$upscope $end
$scope begin addbit[2] $end
$scope module bit $end
$var wire 1 0" a $end
$var wire 1 1" b $end
$var wire 1 2" ci $end
$var wire 1 3" co $end
$var wire 1 4" s $end
$upscope $end
$upscope $end
$scope begin addbit[3] $end
$scope module bit $end
$var wire 1 5" a $end
$var wire 1 6" b $end
$var wire 1 7" ci $end
$var wire 1 8" co $end
$var wire 1 9" s $end
$upscope $end
$upscope $end
$scope begin addbit[4] $end
$scope module bit $end
$var wire 1 :" a $end
$var wire 1 ;" b $end
$var wire 1 <" ci $end
$var wire 1 =" co $end
$var wire 1 >" s $end
$upscope $end
$upscope $end
$scope begin addbit[5] $end
$scope module bit $end
$var wire 1 ?" a $end
$var wire 1 @" b $end
$var wire 1 A" ci $end
$var wire 1 B" co $end
$var wire 1 C" s $end
$upscope $end
$upscope $end
$scope begin addbit[6] $end
$scope module bit $end
$var wire 1 D" a $end
$var wire 1 E" b $end
$var wire 1 F" ci $end
$var wire 1 G" co $end
$var wire 1 H" s $end
$upscope $end
$upscope $end
$upscope $end
$upscope $end
$scope begin genblk0001 $end
$scope begin genblk0002 $end
$upscope $end
$scope begin genblk002 $end
$upscope $end
$scope begin genblk02 $end
$upscope $end
$scope begin genblk2 $end
$upscope $end
$upscope $end
$scope begin genblk0005 $end
$upscope $end
$scope begin genblk001 $end
$scope begin genblk0002 $end
$upscope $end
$scope begin genblk002 $end
$upscope $end
$scope begin genblk02 $end
$upscope $end
$scope begin genblk2 $end
$upscope $end
$upscope $end
$scope begin genblk003 $end
$scope begin genblk004 $end
$upscope $end
$scope begin genblk04 $end
$upscope $end
$scope begin genblk4 $end
$upscope $end
$upscope $end
$scope begin genblk005 $end
$scope begin genblk6 $end
$upscope $end
$upscope $end
$scope begin genblk01 $end
$scope begin genblk0002 $end
$upscope $end
$scope begin genblk002 $end
$upscope $end
$scope begin genblk02 $end
$upscope $end
$scope begin genblk2 $end
$upscope $end
$upscope $end
$scope begin genblk03 $end
$scope begin genblk04 $end
$upscope $end
$scope begin genblk4 $end
$upscope $end
$upscope $end
$scope begin genblk05 $end
$scope begin genblk06 $end
$upscope $end
$scope begin genblk6 $end
$upscope $end
$upscope $end
$scope begin genblk1 $end
$scope begin genblk0002 $end
$upscope $end
$scope begin genblk002 $end
$upscope $end
$scope begin genblk02 $end
$upscope $end
$scope begin genblk2 $end
$upscope $end
$upscope $end
$scope begin genblk3 $end
$scope begin genblk4 $end
$upscope $end
$upscope $end
$scope begin genblk5 $end
$scope begin genblk006 $end
$upscope $end
$scope begin genblk06 $end
$upscope $end
$scope begin genblk6 $end
$upscope $end
$upscope $end
$upscope $end
$upscope $end
$enddefinitions $end
#0
$dumpvars
0H"
0G"
0F"
0E"
0D"
0C"
0B"
0A"
0@"
0?"
0>"
0="
0<"
0;"
0:"
09"
08"
07"
06"
05"
04"
03"
02"
01"
00"
0/"
0."
0-"
0,"
0+"
0*"
0)"
0("
0'"
0&"
b0 %"
0$"
b0 #"
b0 ""
0!"
b0 ~
0}
0|
0{
0z
0y
0x
0w
0v
0u
0t
0s
0r
0q
0p
0o
0n
0m
0l
0k
0j
0i
0h
0g
0f
0e
0d
0c
0b
0a
0`
0_
0^
0]
0\
0[
b0 Z
0Y
b0 X
b0 W
0V
b0 U
0T
0S
0R
0Q
0P
0O
0N
0M
0L
0K
0J
0I
0H
0G
0F
0E
0D
0C
0B
0A
0@
0?
0>
0=
0<
0;
0:
09
08
07
06
05
04
03
02
b0 1
00
b0 /
b0 .
0-
b0 ,
b0 +
b0 *
b0 )
b0 (
b0 '
b0 &
b0 %
b0 $
b0 #
0"
b0 !
$end
#5
b1 '
#10
b10 '
b1 %
b1 )
#15
b11 '
b10 %
b10 )
#20
b100 '
b11 %
b11 )
#25
b101 '
b100 %
b100 )
#30
b110 '
b101 %
b101 )
#35
b111 '
b110 %
b110 )
#40
b1000 '
b111 %
b111 )
#45
b1001 '
b1000 %
b1000 )
#50
b1010 '
b1001 %
b1001 )
#55
b1011 '
b1010 %
b1010 )
#60
b1100 '
b1011 %
b1011 )
#65
b1101 '
b1100 %
b1100 )
#70
b1110 '
b1101 %
b1101 )
#75
b1111 '
b1110 %
b1110 )
#80
b1 &
b0 '
b1111 %
b1111 )
#85
b1 '
b0 %
b0 )
0"
b0 !
b1 $
b1 (
#90
b1 #
b1 *
b1 #"
1*"
1&"
b1 X
b1 ~
1_
1[
b1 /
b1 U
16
12
b1 ,
b10 '
0"
b1 !
b1 %
b1 )
#95
0*"
b10 #
b10 *
b10 #"
1/"
0&"
1+"
0_
b10 X
b10 ~
1d
0[
1`
06
b10 /
b10 U
1;
02
18
b0 ,
b10 1
b11 '
0"
b10 !
b10 %
b10 )
#100
b11 #
b11 *
b11 #"
1*"
1&"
b11 X
b11 ~
1_
1[
b11 /
b11 U
16
12
b1 ,
b100 '
0"
b11 !
b11 %
b11 )
#105
0*"
0/"
0&"
0+"
0_
0d
b100 #
b100 *
b100 #"
14"
0[
0`
10"
06
b0 /
b0 U
0;
b100 X
b100 ~
1i
02
08
1f
b0 ,
b0 1
b100 Z
b101 '
0"
b100 !
b100 %
b100 )
#110
b101 #
b101 *
b101 #"
1*"
1&"
b101 X
b101 ~
1_
1[
b1 /
b1 U
16
12
b1 ,
b110 '
0"
b101 !
b101 %
b101 )
#115
0*"
b110 #
b110 *
b110 #"
1/"
0&"
1+"
0_
b110 X
b110 ~
1d
0[
1`
06
b10 /
b10 U
1;
02
18
b0 ,
b10 1
b111 '
0"
b110 !
b110 %
b110 )
#120
b111 #
b111 *
b111 #"
1*"
1&"
b111 X
b111 ~
1_
1[
b11 /
b11 U
16
12
b1 ,
b1000 '
0"
b111 !
b111 %
b111 )
#125
0*"
0/"
0&"
0+"
0_
0d
04"
0[
0`
00"
06
b0 /
b0 U
0;
b0 X
b0 ~
0i
b1000 #
b1000 *
b1000 #"
19"
02
08
0f
16"
b0 ,
b0 1
b0 Z
b1000 %"
b1001 '
0"
b1000 !
b1000 %
b1000 )
#130
b1001 #
b1001 *
b1001 #"
1*"
1&"
b1 X
b1 ~
1_
1[
b1 /
b1 U
16
12
b1 ,
b1010 '
0"
b1001 !
b1001 %
b1001 )
#135
0*"
b1010 #
b1010 *
b1010 #"
1/"
0&"
1+"
0_
b10 X
b10 ~
1d
0[
1`
06
b10 /
b10 U
1;
02
18
b0 ,
b10 1
b1011 '
0"
b1010 !
b1010 %
b1010 )
#140
b1011 #
b1011 *
b1011 #"
1*"
1&"
b11 X
b11 ~
1_
1[
b11 /
b11 U
16
12
b1 ,
b1100 '
0"
b1011 !
b1011 %
b1011 )
#145
0*"
0/"
0&"
0+"
0_
0d
b1100 #
b1100 *
b1100 #"
14"
0[
0`
10"
06
b0 /
b0 U
0;
b100 X
b100 ~
1i
02
08
1f
b0 ,
b0 1
b100 Z
b1101 '
0"
b1100 !
b1100 %
b1100 )
#150
b1101 #
b1101 *
b1101 #"
1*"
1&"
b101 X
b101 ~
1_
1[
b1 /
b1 U
16
12
b1 ,
b1110 '
0"
b1101 !
b1101 %
b1101 )
#155
0*"
b1110 #
b1110 *
b1110 #"
1/"
0&"
1+"
0_
b110 X
b110 ~
1d
0[
1`
06
b10 /
b10 U
1;
02
18
b0 ,
b10 1
b1111 '
0"
b1110 !
b1110 %
b1110 )
#160
b1111 #
b1111 *
b1111 #"
1*"
1&"
b111 X
b111 ~
1_
1[
b11 /
b11 U
16
12
b1 ,
b10 &
b0 '
0"
b1111 !
b1111 %
b1111 )
#165
0*"
0/"
0&"
0+"
0_
0d
04"
0[
0`
00"
06
b0 /
b0 U
0;
b0 X
b0 ~
0i
b0 #
b0 *
b0 #"
09"
02
08
0f
06"
b0 ,
b0 1
b0 Z
b0 %"
b1 '
b0 %
b0 )
0"
b0 !
b10 $
b10 (
#170
b10 #
b10 *
b10 #"
1/"
1+"
b10 X
b10 ~
1d
1`
b10 /
b10 U
1;
17
b10 ,
b10 '
0"
b10 !
b1 %
b1 )
#175
0/"
b100 #
b100 *
b100 #"
14"
0+"
10"
0d
b100 X
b100 ~
1i
0`
1e
0;
b100 /
b100 U
1@
07
1=
b0 ,
b100 1
b11 '
0"
b100 !
b10 %
b10 )
#180
b110 #
b110 *
b110 #"
1/"
1+"
b110 X
b110 ~
1d
1`
b110 /
b110 U
1;
17
b10 ,
b100 '
0"
b110 !
b11 %
b11 )
#185
0/"
04"
0+"
00"
0d
0i
b1000 #
b1000 *
b1000 #"
19"
0`
0e
15"
0;
b0 /
b0 U
0@
b1000 X
b1000 ~
1n
07
0=
1k
b0 ,
b0 1
b1000 Z
b101 '
0"
b1000 !
b100 %
b100 )
#190
b1010 #
b1010 *
b1010 #"
1/"
1+"
b1010 X
b1010 ~
1d
1`
b10 /
b10 U
1;
17
b10 ,
b110 '
0"
b1010 !
b101 %
b101 )
#195
0/"
b1100 #
b1100 *
b1100 #"
14"
0+"
10"
0d
b1100 X
b1100 ~
1i
0`
1e
0;
b100 /
b100 U
1@
07
1=
b0 ,
b100 1
b111 '
0"
b1100 !
b110 %
b110 )
#200
b1110 #
b1110 *
b1110 #"
1/"
1+"
b1110 X
b1110 ~
1d
1`
b110 /
b110 U
1;
17
b10 ,
b1000 '
0"
b1110 !
b111 %
b111 )
#205
0/"
04"
0+"
00"
0d
0i
09"
0`
0e
05"
0;
b0 /
b0 U
0@
b0 X
b0 ~
0n
b10000 #
b10000 *
b10000 #"
1>"
07
0=
0k
1;"
b0 ,
b0 1
b0 Z
b10000 %"
b1001 '
0"
b10000 !
b1000 %
b1000 )
#210
b10010 #
b10010 *
b10010 #"
1/"
1+"
b10 X
b10 ~
1d
1`
b10 /
b10 U
1;
17
b10 ,
b1010 '
0"
b10010 !
b1001 %
b1001 )
#215
0/"
b10100 #
b10100 *
b10100 #"
14"
0+"
10"
0d
b100 X
b100 ~
1i
0`
1e
0;
b100 /
b100 U
1@
07
1=
b0 ,
b100 1
b1011 '
0"
b10100 !
b1010 %
b1010 )
#220
b10110 #
b10110 *
b10110 #"
1/"
1+"
b110 X
b110 ~
1d
1`
b110 /
b110 U
1;
17
b10 ,
b1100 '
0"
b10110 !
b1011 %
b1011 )
#225
0/"
04"
0+"
00"
0d
0i
b11000 #
b11000 *
b11000 #"
19"
0`
0e
15"
0;
b0 /
b0 U
0@
b1000 X
b1000 ~
1n
07
0=
1k
b0 ,
b0 1
b1000 Z
b1101 '
0"
b11000 !
b1100 %
b1100 )
#230
b11010 #
b11010 *
b11010 #"
1/"
1+"
b1010 X
b1010 ~
1d
1`
b10 /
b10 U
1;
17
b10 ,
b1110 '
0"
b11010 !
b1101 %
b1101 )
#235
0/"
b11100 #
b11100 *
b11100 #"
14"
0+"
10"
0d
b1100 X
b1100 ~
1i
0`
1e
0;
b100 /
b100 U
1@
07
1=
b0 ,
b100 1
b1111 '
0"
b11100 !
b1110 %
b1110 )
#240
b11110 #
b11110 *
b11110 #"
1/"
1+"
b1110 X
b1110 ~
1d
1`
b110 /
b110 U
1;
17
b10 ,
b11 &
b0 '
0"
b11110 !
b1111 %
b1111 )
#245
0/"
04"
0+"
00"
0d
0i
09"
0`
0e
05"
0;
b0 /
b0 U
0@
b0 X
b0 ~
0n
b0 #
b0 *
b0 #"
0>"
07
0=
0k
0;"
b0 ,
b0 1
b0 Z
b0 %"
b1 '
b0 %
b0 )
0"
b0 !
b11 $
b11 (
#250
1*"
b11 #
b11 *
b11 #"
1/"
1&"
1+"
1_
b11 X
b11 ~
1d
1[
1`
16
b11 /
b11 U
1;
12
17
b11 ,
b10 '
0"
b11 !
b1 %
b1 )
#255
0*"
b110 #
b110 *
b110 #"
14"
0&"
10"
0_
b110 X
b110 ~
1i
0[
1e
06
b110 /
b110 U
1@
02
07
18
1=
b0 ,
b110 1
b11 '
0"
b110 !
b10 %
b10 )
#260
19"
15"
04"
1n
00"
1j
1*"
b1001 #
b1001 *
b1001 #"
0/"
0i
1E
1C
1&"
0+"
0e
1?
1_
b1001 X
b1001 ~
0d
0@
1>
1[
0`
b1100 .
1:
16
b1001 /
b1001 U
0;
12
17
b11 ,
b100 '
0"
b1001 !
b11 %
b11 )
#265
0*"
0>"
0l
0&"
0h
0:"
0_
0j
14"
b1100 #
b1100 *
b1100 #"
19"
0s
0>
0E
0q
0[
0:
0e
0C
10"
15"
b0 W
0m
06
b0 /
b0 U
0@
b0 .
0?
1i
b1100 X
b1100 ~
1n
02
07
08
0=
1f
1k
b0 ,
b0 1
b1100 Z
b101 '
0"
b1100 !
b100 %
b100 )
#270
1*"
b1111 #
b1111 *
b1111 #"
1/"
1&"
1+"
1_
b1111 X
b1111 ~
1d
1[
1`
16
b11 /
b11 U
1;
12
17
b11 ,
b110 '
0"
b1111 !
b101 %
b101 )
#275
1>"
1:"
09"
1s
1q
05"
1m
0*"
b10010 #
b10010 *
b10010 #"
04"
0n
1l
0&"
00"
b11000 W
1h
0_
b10010 X
b10010 ~
0i
0[
1e
06
b110 /
b110 U
1@
02
07
18
1=
b0 ,
b110 1
b111 '
0"
b10010 !
b110 %
b110 )
#280
14"
0l
10"
b10000 W
0h
1j
1*"
b10101 #
b10101 *
b10101 #"
0/"
1i
1E
1C
1&"
0+"
0e
1?
1_
b10101 X
b10101 ~
0d
0@
1>
1[
0`
b1100 .
1:
16
b1001 /
b1001 U
0;
12
17
b11 ,
b1000 '
0"
b10101 !
b111 %
b111 )
#285
0*"
0<"
0&"
08"
0:"
0_
0j
04"
0s
0C"
0>
0E
0q
0A"
0[
0:
0e
0C
00"
05"
b0 W
0m
b0 ""
0="
06
b0 /
b0 U
0@
b0 .
0?
0i
b0 X
b0 ~
0n
19"
b11000 #
b11000 *
b11000 #"
1>"
02
07
08
0=
0f
0k
16"
1;"
b0 ,
b0 1
b0 Z
b11000 %"
b1001 '
0"
b11000 !
b1000 %
b1000 )
#290
1*"
b11011 #
b11011 *
b11011 #"
1/"
1&"
1+"
1_
b11 X
b11 ~
1d
1[
1`
16
b11 /
b11 U
1;
12
17
b11 ,
b1010 '
0"
b11011 !
b1001 %
b1001 )
#295
0*"
b11110 #
b11110 *
b11110 #"
14"
0&"
10"
0_
b110 X
b110 ~
1i
0[
1e
06
b110 /
b110 U
1@
02
07
18
1=
b0 ,
b110 1
b1011 '
0"
b11110 !
b1010 %
b1010 )
#300
1C"
1A"
1="
0>"
1<"
b110000 ""
18"
09"
15"
04"
1n
00"
1j
1*"
b100001 #
b100001 *
b100001 #"
0/"
0i
1E
1C
1&"
0+"
0e
1?
1_
b1001 X
b1001 ~
0d
0@
1>
1[
0`
b1100 .
1:
16
b1001 /
b1001 U
0;
12
17
b11 ,
b1100 '
0"
b100001 !
b1011 %
b1011 )
#305
0*"
0l
1<"
0&"
0h
b110000 ""
18"
0:"
0_
0j
14"
b100100 #
b100100 *
b100100 #"
09"
0s
0>
0E
0q
0[
0:
0e
0C
10"
15"
b0 W
0m
06
b0 /
b0 U
0@
b0 .
0?
1i
b1100 X
b1100 ~
1n
02
07
08
0=
1f
1k
b0 ,
b0 1
b1100 Z
b1101 '
0"
b100100 !
b1100 %
b1100 )
#310
1*"
b100111 #
b100111 *
b100111 #"
1/"
1&"
1+"
1_
b1111 X
b1111 ~
1d
1[
1`
16
b11 /
b11 U
1;
12
17
b11 ,
b1110 '
0"
b100111 !
b1101 %
b1101 )
#315
0<"
b100000 ""
08"
1:"
19"
1s
1q
05"
1m
0*"
b101010 #
b101010 *
b101010 #"
04"
0n
1l
0&"
00"
b11000 W
1h
0_
b10010 X
b10010 ~
0i
0[
1e
06
b110 /
b110 U
1@
02
07
18
1=
b0 ,
b110 1
b1111 '
0"
b101010 !
b1110 %
b1110 )
#320
14"
0l
10"
b10000 W
0h
1j
1*"
b101101 #
b101101 *
b101101 #"
0/"
1i
1E
1C
1&"
0+"
0e
1?
1_
b10101 X
b10101 ~
0d
0@
1>
1[
0`
b1100 .
1:
16
b1001 /
b1001 U
0;
12
17
b11 ,
b100 &
b0 '
0"
b101101 !
b1111 %
b1111 )
#325
0*"
0&"
0:"
0_
0j
04"
0s
0C"
0>
0E
0q
0A"
0[
0:
0e
0C
00"
05"
b0 W
0m
b0 ""
0="
06
b0 /
b0 U
0@
b0 .
0?
0i
b0 X
b0 ~
0n
09"
b0 #
b0 *
b0 #"
0>"
02
07
08
0=
0f
0k
06"
0;"
b0 ,
b0 1
b0 Z
b0 %"
b1 '
b0 %
b0 )
0"
b0 !
b100 $
b100 (
#330
b100 #
b100 *
b100 #"
14"
10"
b100 X
b100 ~
1i
1e
b100 /
b100 U
1@
1<
b100 ,
b10 '
0"
b100 !
b1 %
b1 )
#335
04"
b1000 #
b1000 *
b1000 #"
19"
00"
15"
0i
b1000 X
b1000 ~
1n
0e
1j
0@
b1000 /
b1000 U
1E
0<
1B
b0 ,
b1000 1
b11 '
0"
b1000 !
b10 %
b10 )
#340
b1100 #
b1100 *
b1100 #"
14"
10"
b1100 X
b1100 ~
1i
1e
b1100 /
b1100 U
1@
1<
b100 ,
b100 '
0"
b1100 !
b11 %
b11 )
#345
04"
09"
00"
05"
0i
0n
b10000 #
b10000 *
b10000 #"
1>"
0e
0j
1:"
0@
b0 /
b0 U
0E
b10000 X
b10000 ~
1s
0<
0B
1p
b0 ,
b0 1
b10000 Z
b101 '
0"
b10000 !
b100 %
b100 )
#350
b10100 #
b10100 *
b10100 #"
14"
10"
b10100 X
b10100 ~
1i
1e
b100 /
b100 U
1@
1<
b100 ,
b110 '
0"
b10100 !
b101 %
b101 )
#355
04"
b11000 #
b11000 *
b11000 #"
19"
00"
15"
0i
b11000 X
b11000 ~
1n
0e
1j
0@
b1000 /
b1000 U
1E
0<
1B
b0 ,
b1000 1
b111 '
0"
b11000 !
b110 %
b110 )
#360
b11100 #
b11100 *
b11100 #"
14"
10"
b11100 X
b11100 ~
1i
1e
b1100 /
b1100 U
1@
1<
b100 ,
b1000 '
0"
b11100 !
b111 %
b111 )
#365
04"
09"
00"
05"
0i
0n
0>"
0e
0j
0:"
0@
b0 /
b0 U
0E
b0 X
b0 ~
0s
b100000 #
b100000 *
b100000 #"
1C"
0<
0B
0p
1@"
b0 ,
b0 1
b0 Z
b100000 %"
b1001 '
0"
b100000 !
b1000 %
b1000 )
#370
b100100 #
b100100 *
b100100 #"
14"
10"
b100 X
b100 ~
1i
1e
b100 /
b100 U
1@
1<
b100 ,
b1010 '
0"
b100100 !
b1001 %
b1001 )
#375
04"
b101000 #
b101000 *
b101000 #"
19"
00"
15"
0i
b1000 X
b1000 ~
1n
0e
1j
0@
b1000 /
b1000 U
1E
0<
1B
b0 ,
b1000 1
b1011 '
0"
b101000 !
b1010 %
b1010 )
#380
b101100 #
b101100 *
b101100 #"
14"
10"
b1100 X
b1100 ~
1i
1e
b1100 /
b1100 U
1@
1<
b100 ,
b1100 '
0"
b101100 !
b1011 %
b1011 )
#385
04"
09"
00"
05"
0i
0n
b110000 #
b110000 *
b110000 #"
1>"
0e
0j
1:"
0@
b0 /
b0 U
0E
b10000 X
b10000 ~
1s
0<
0B
1p
b0 ,
b0 1
b10000 Z
b1101 '
0"
b110000 !
b1100 %
b1100 )
#390
b110100 #
b110100 *
b110100 #"
14"
10"
b10100 X
b10100 ~
1i
1e
b100 /
b100 U
1@
1<
b100 ,
b1110 '
0"
b110100 !
b1101 %
b1101 )
#395
04"
b111000 #
b111000 *
b111000 #"
19"
00"
15"
0i
b11000 X
b11000 ~
1n
0e
1j
0@
b1000 /
b1000 U
1E
0<
1B
b0 ,
b1000 1
b1111 '
0"
b111000 !
b1110 %
b1110 )
#400
b111100 #
b111100 *
b111100 #"
14"
10"
b11100 X
b11100 ~
1i
1e
b1100 /
b1100 U
1@
1<
b100 ,
b101 &
b0 '
0"
b111100 !
b1111 %
b1111 )
#405
04"
09"
00"
05"
0i
0n
0>"
0e
0j
0:"
0@
b0 /
b0 U
0E
b0 X
b0 ~
0s
b0 #
b0 *
b0 #"
0C"
0<
0B
0p
0@"
b0 ,
b0 1
b0 Z
b0 %"
b1 '
b0 %
b0 )
0"
b0 !
b101 $
b101 (
#410
1*"
b101 #
b101 *
b101 #"
14"
1&"
10"
1_
b101 X
b101 ~
1i
1[
1e
16
b101 /
b101 U
1@
12
1<
b101 ,
b10 '
0"
b101 !
b1 %
b1 )
#415
0*"
04"
1/"
b1010 #
b1010 *
b1010 #"
19"
0&"
00"
1+"
15"
0_
0i
1d
b1010 X
b1010 ~
1n
0[
0e
1`
1j
06
0@
1;
b1010 /
b1010 U
1E
02
0<
18
1B
b0 ,
b1010 1
b11 '
0"
b1010 !
b10 %
b10 )
#420
1*"
b1111 #
b1111 *
b1111 #"
14"
1&"
10"
1_
b1111 X
b1111 ~
1i
1[
1e
16
b1111 /
b1111 U
1@
12
1<
b101 ,
b100 '
0"
b1111 !
b11 %
b11 )
#425
09"
05"
0*"
0n
0/"
0&"
0+"
0_
0d
14"
b10100 #
b10100 *
b10100 #"
1>"
0l
0[
0e
0`
0j
10"
b0 W
0h
1:"
06
0@
0;
b0 /
b0 U
0E
1i
b10100 X
b10100 ~
1s
02
0<
08
0B
1f
1p
b0 ,
b0 1
b10100 Z
b101 '
0"
b10100 !
b100 %
b100 )
#430
19"
15"
1*"
b11001 #
b11001 *
b11001 #"
04"
1n
1l
1&"
00"
b1000 W
1h
1_
b11001 X
b11001 ~
0i
1[
1e
16
b101 /
b101 U
1@
12
1<
b101 ,
b110 '
0"
b11001 !
b101 %
b101 )
#435
0C"
0?"
1>"
0x
0v
1:"
0r
0*"
14"
1/"
b11110 #
b11110 *
b11110 #"
19"
1s
0l
0q
0&"
10"
0h
1+"
15"
b0 W
0m
0_
1i
1d
b11110 X
b11110 ~
1n
0[
0e
1`
1j
06
0@
1;
b1010 /
b1010 U
1E
02
0<
18
1B
b0 ,
b1010 1
b111 '
0"
b11110 !
b110 %
b110 )
#440
1C"
1?"
0>"
1x
1v
0:"
1r
0s
09"
1q
1m
05"
1*"
b100011 #
b100011 *
b100011 #"
04"
0n
1l
1&"
00"
b111000 W
1h
1_
b100011 X
b100011 ~
0i
1[
1e
16
b1111 /
b1111 U
1@
12
1<
b101 ,
b1000 '
0"
b100011 !
b111 %
b111 )
#445
0*"
0/"
0q
0&"
0+"
0m
0_
0d
04"
0>"
0?"
0H"
0l
0x
0F"
0[
0e
0`
0j
00"
0h
0:"
0v
b0 ""
0B"
06
0@
0;
b0 /
b0 U
0E
0i
b0 X
b0 ~
0s
b0 W
0r
19"
b101000 #
b101000 *
b101000 #"
1C"
02
0<
08
0B
0f
0p
16"
1@"
b0 ,
b0 1
b0 Z
b101000 %"
b1001 '
0"
b101000 !
b1000 %
b1000 )
#450
1*"
b101101 #
b101101 *
b101101 #"
14"
1&"
10"
1_
b101 X
b101 ~
1i
1[
1e
16
b101 /
b101 U
1@
12
1<
b101 ,
b1010 '
0"
b101101 !
b1001 %
b1001 )
#455
1>"
1<"
b10000 ""
18"
0*"
04"
1/"
b110010 #
b110010 *
b110010 #"
09"
0&"
00"
1+"
15"
0_
0i
1d
b1010 X
b1010 ~
1n
0[
0e
1`
1j
06
0@
1;
b1010 /
b1010 U
1E
02
0<
18
1B
b0 ,
b1010 1
b1011 '
0"
b110010 !
b1010 %
b1010 )
#460
1*"
b110111 #
b110111 *
b110111 #"
14"
1&"
10"
1_
b1111 X
b1111 ~
1i
1[
1e
16
b1111 /
b1111 U
1@
12
1<
b101 ,
b1100 '
0"
b110111 !
b1011 %
b1011 )
#465
0<"
08"
19"
0H"
0F"
05"
0B"
0*"
0n
0/"
1C"
0A"
0&"
0+"
b0 ""
0="
0_
0d
14"
b111100 #
b111100 *
b111100 #"
1>"
0l
0[
0e
0`
0j
10"
b0 W
0h
1:"
06
0@
0;
b0 /
b0 U
0E
1i
b10100 X
b10100 ~
1s
02
0<
08
0B
1f
1p
b0 ,
b0 1
b10100 Z
b1101 '
0"
b111100 !
b1100 %
b1100 )
#470
1H"
1F"
1B"
0C"
1A"
1="
0>"
1<"
b1110000 ""
18"
09"
15"
1*"
b1000001 #
b1000001 *
b1000001 #"
04"
1n
1l
1&"
00"
b1000 W
1h
1_
b11001 X
b11001 ~
0i
1[
1e
16
b101 /
b101 U
1@
12
1<
b101 ,
b1110 '
0"
b1000001 !
b1101 %
b1101 )
#475
1A"
1="
0?"
0x
1<"
0v
b1110000 ""
18"
1:"
0r
0*"
14"
1/"
b1000110 #
b1000110 *
b1000110 #"
09"
1s
0l
0q
0&"
10"
0h
1+"
15"
b0 W
0m
0_
1i
1d
b11110 X
b11110 ~
1n
0[
0e
1`
1j
06
0@
1;
b1010 /
b1010 U
1E
02
0<
18
1B
b0 ,
b1010 1
b1111 '
0"
b1000110 !
b1110 %
b1110 )
#480
0A"
0="
1?"
1x
1v
0<"
0:"
1r
b1000000 ""
08"
0s
19"
1q
1m
05"
1*"
b1001011 #
b1001011 *
b1001011 #"
04"
0n
1l
1&"
00"
b111000 W
1h
1_
b100011 X
b100011 ~
0i
1[
1e
16
b1111 /
b1111 U
1@
12
1<
b101 ,
b110 &
b0 '
0"
b1001011 !
b1111 %
b1111 )
